[symbol2]
bbox 384 -352 672 448
port 640 -240 100 1792 SADR symbol 2 672 -256 0
port 640 -304 100 1792 FLNK symbol 2 672 -320 0
port 640 -272 100 1792 VAL symbol 2 672 -288 0
port 410 139 100 1792 J symbol 1 384 128 0
port 422 -311 100 1792 SDIS symbol 1 384 -320 0
port 422 -279 100 1792 SLNK symbol 1 384 -288 0
port 410 395 100 1792 B symbol 1 384 384 0
port 410 331 100 1792 D symbol 1 384 320 0
port 410 265 100 1792 F symbol 1 384 256 0
port 410 202 100 1792 H symbol 1 384 192 0
port 410 74 100 1792 L symbol 1 384 64 0
port 410 8 100 1792 N symbol 1 384 0 0
port 410 -53 100 1792 P symbol 1 384 -64 0
port 410 -117 100 1792 R symbol 1 384 -128 0
port 410 -182 100 1792 T symbol 1 384 -192 0
port 422 -247 100 1792 SUBL symbol 1 384 -256 0
port 640 432 100 1792 OUTA symbol 2 672 416 0
port 640 400 100 1792 OUTB symbol 2 672 384 0
port 640 368 100 1792 OUTC symbol 2 672 352 0
port 640 336 100 1792 OUTD symbol 2 672 320 0
port 640 304 100 1792 OUTE symbol 2 672 288 0
port 640 272 100 1792 OUTF symbol 2 672 256 0
port 640 240 100 1792 OUTG symbol 2 672 224 0
port 640 208 100 1792 OUTH symbol 2 672 192 0
port 640 176 100 1792 OUTI symbol 2 672 160 0
port 640 144 100 1792 OUTJ symbol 2 672 128 0
port 640 112 100 1792 OUTK symbol 2 672 96 0
port 640 80 100 1792 OUTL symbol 2 672 64 0
port 640 48 100 1792 OUTM symbol 2 672 32 0
port 640 16 100 1792 OUTN symbol 2 672 0 0
port 640 -16 100 1792 OUTO symbol 2 672 -32 0
port 640 -48 100 1792 OUTP symbol 2 672 -64 0
port 640 -80 100 1792 OUTQ symbol 2 672 -96 0
port 640 -112 100 1792 OUTR symbol 2 672 -128 0
port 640 -144 100 1792 OUTS symbol 2 672 -160 0
port 640 -176 100 1792 OUTT symbol 2 672 -192 0
port 640 -208 100 1792 OUTU symbol 2 672 -224 0
port 410 -148 100 1792 S symbol 1 384 -160 0
port 410 -86 100 1792 Q symbol 1 384 -96 0
port 410 -22 100 1792 O symbol 1 384 -32 0
port 410 42 100 1792 M symbol 1 384 32 0
port 410 109 100 1792 K symbol 1 384 96 0
port 410 170 100 1792 I symbol 1 384 160 0
port 410 236 100 1792 G symbol 1 384 224 0
port 410 299 100 1792 E symbol 1 384 288 0
port 410 364 100 1792 C symbol 1 384 352 0
port 410 426 100 1792 A symbol 1 384 416 0
port 410 -214 100 1792 U symbol 1 384 -224 0
uniq 19
[tools]
[attributes]
p 96 158 100 0 0 BRSV:NO_ALARM
p 227 363 100 0 0 DESC:General Subroutine Record
p 96 158 100 0 0 DISS:NO_ALARM
p 96 190 100 0 0 DISV:1
p 96 62 100 0 0 EFLG:ALWAYS
p 96 254 100 0 0 EVNT:0
p 161 -603 100 0 0 FTA:DOUBLE
p 161 -603 100 0 0 FTB:DOUBLE
p 161 -635 100 0 0 FTC:DOUBLE
p 161 -667 100 0 0 FTD:DOUBLE
p 161 -699 100 0 0 FTE:DOUBLE
p 161 -763 100 0 0 FTF:DOUBLE
p 161 -763 100 0 0 FTG:DOUBLE
p 161 -795 100 0 0 FTH:DOUBLE
p 161 -827 100 0 0 FTI:DOUBLE
p 161 -859 100 0 0 FTJ:DOUBLE
p 161 -859 100 0 0 FTK:DOUBLE
p 161 -859 100 0 0 FTL:DOUBLE
p 161 -859 100 0 0 FTM:DOUBLE
p 161 -859 100 0 0 FTN:DOUBLE
p 161 -859 100 0 0 FTO:DOUBLE
p 161 -859 100 0 0 FTP:DOUBLE
p 161 -859 100 0 0 FTQ:DOUBLE
p 161 -859 100 0 0 FTR:DOUBLE
p 161 -859 100 0 0 FTS:DOUBLE
p 161 -859 100 0 0 FTT:DOUBLE
p 161 -859 100 0 0 FTU:DOUBLE
p 161 -603 100 0 0 FTVA:DOUBLE
p 161 -603 100 0 0 FTVB:DOUBLE
p 161 -635 100 0 0 FTVC:DOUBLE
p 161 -667 100 0 0 FTVD:DOUBLE
p 161 -699 100 0 0 FTVE:DOUBLE
p 161 -763 100 0 0 FTVF:DOUBLE
p 161 -763 100 0 0 FTVG:DOUBLE
p 161 -795 100 0 0 FTVH:DOUBLE
p 161 -827 100 0 0 FTVI:DOUBLE
p 161 -859 100 0 0 FTVJ:DOUBLE
p 161 -859 100 0 0 FTVK:DOUBLE
p 161 -859 100 0 0 FTVL:DOUBLE
p 161 -859 100 0 0 FTVM:DOUBLE
p 161 -859 100 0 0 FTVN:DOUBLE
p 161 -859 100 0 0 FTVO:DOUBLE
p 161 -859 100 0 0 FTVP:DOUBLE
p 161 -859 100 0 0 FTVQ:DOUBLE
p 161 -859 100 0 0 FTVR:DOUBLE
p 161 -859 100 0 0 FTVS:DOUBLE
p 161 -859 100 0 0 FTVT:DOUBLE
p 161 -859 100 0 0 FTVU:DOUBLE
p 96 30 100 0 0 INAM:
p 96 62 100 0 0 LFLG:IGNORE
p 161 -955 100 0 0 NOA:1
p 161 -987 100 0 0 NOB:1
p 161 -1019 100 0 0 NOC:1
p 161 -1051 100 0 0 NOD:1
p 161 -1083 100 0 0 NOE:1
p 161 -1115 100 0 0 NOF:1
p 161 -1147 100 0 0 NOG:1
p 161 -1179 100 0 0 NOH:1
p 161 -1211 100 0 0 NOI:1
p 161 -1243 100 0 0 NOJ:1
p 161 -1243 100 0 0 NOK:1
p 161 -1243 100 0 0 NOL:1
p 161 -1243 100 0 0 NOM:1
p 161 -1243 100 0 0 NON:1
p 161 -1243 100 0 0 NOO:1
p 161 -1243 100 0 0 NOP:1
p 161 -1243 100 0 0 NOQ:1
p 161 -1243 100 0 0 NOR:1
p 161 -1243 100 0 0 NOS:1
p 161 -1243 100 0 0 NOT:1
p 161 -1243 100 0 0 NOU:1
p 161 -955 100 0 0 NOVA:1
p 161 -987 100 0 0 NOVB:1
p 161 -1019 100 0 0 NOVC:1
p 161 -1051 100 0 0 NOVD:1
p 161 -1083 100 0 0 NOVE:1
p 161 -1115 100 0 0 NOVF:1
p 161 -1147 100 0 0 NOVG:1
p 161 -1179 100 0 0 NOVH:1
p 161 -1211 100 0 0 NOVI:1
p 161 -1243 100 0 0 NOVJ:1
p 161 -1243 100 0 0 NOVK:1
p 161 -1243 100 0 0 NOVL:1
p 161 -1243 100 0 0 NOVM:1
p 161 -1243 100 0 0 NOVN:1
p 161 -1243 100 0 0 NOVO:1
p 161 -1243 100 0 0 NOVP:1
p 161 -1243 100 0 0 NOVQ:1
p 161 -1243 100 0 0 NOVR:1
p 161 -1243 100 0 0 NOVS:1
p 161 -1243 100 0 0 NOVT:1
p 161 -1243 100 0 0 NOVU:1
p 96 286 100 0 0 PHAS:0
p 96 222 100 0 0 PINI:NO
p 96 174 100 0 0 PREC:0
p 96 126 100 0 0 PRIO:LOW
p 96 318 100 0 0 SCAN:Passive
p 96 -2 100 0 0 SNAM:
p 496 78 100 0 -1 Type:genSub
p 161 -603 100 0 0 UFA:
p 161 -603 100 0 0 UFB:
p 161 -603 100 0 0 UFC:
p 161 -603 100 0 0 UFD:
p 161 -603 100 0 0 UFE:
p 161 -603 100 0 0 UFF:
p 161 -603 100 0 0 UFG:
p 161 -603 100 0 0 UFH:
p 161 -603 100 0 0 UFI:
p 161 -603 100 0 0 UFJ:
p 161 -603 100 0 0 UFK:
p 161 -603 100 0 0 UFL:
p 161 -603 100 0 0 UFM:
p 161 -603 100 0 0 UFN:
p 161 -603 100 0 0 UFO:
p 161 -603 100 0 0 UFP:
p 161 -603 100 0 0 UFQ:
p 161 -603 100 0 0 UFR:
p 161 -603 100 0 0 UFS:
p 161 -603 100 0 0 UFT:
p 161 -603 100 0 0 UFU:
p 161 -603 100 0 0 UFVA:
p 161 -603 100 0 0 UFVB:
p 161 -603 100 0 0 UFVC:
p 161 -603 100 0 0 UFVD:
p 161 -603 100 0 0 UFVE:
p 161 -603 100 0 0 UFVF:
p 161 -603 100 0 0 UFVG:
p 161 -603 100 0 0 UFVH:
p 161 -603 100 0 0 UFVI:
p 161 -603 100 0 0 UFVJ:
p 161 -603 100 0 0 UFVK:
p 161 -603 100 0 0 UFVL:
p 161 -603 100 0 0 UFVM:
p 161 -603 100 0 0 UFVN:
p 161 -603 100 0 0 UFVO:
p 161 -603 100 0 0 UFVP:
p 161 -603 100 0 0 UFVQ:
p 161 -603 100 0 0 UFVR:
p 161 -603 100 0 0 UFVS:
p 161 -603 100 0 0 UFVT:
p 161 -603 100 0 0 UFVU:
p 161 -187 100 0 0 def(FLNK):0.000000000000000e+00
p 161 -219 100 0 0 def(OUTA):0.000000000000000e+00
p 161 -251 100 0 0 def(OUTB):0.000000000000000e+00
p 161 -283 100 0 0 def(OUTC):0.000000000000000e+00
p 161 -315 100 0 0 def(OUTD):0.000000000000000e+00
p 161 -347 100 0 0 def(OUTE):0.000000000000000e+00
p 161 -379 100 0 0 def(OUTF):0.000000000000000e+00
p 161 -411 100 0 0 def(OUTG):0.000000000000000e+00
p 161 -443 100 0 0 def(OUTH):0.000000000000000e+00
p 161 -475 100 0 0 def(OUTI):0.000000000000000e+00
p 161 -507 100 0 0 def(OUTJ):0.000000000000000e+00
p 161 -507 100 0 0 def(OUTK):0.000000000000000e+00
p 161 -507 100 0 0 def(OUTL):0.000000000000000e+00
p 161 -507 100 0 0 def(OUTM):0.000000000000000e+00
p 161 -507 100 0 0 def(OUTN):0.000000000000000e+00
p 161 -507 100 0 0 def(OUTO):0.000000000000000e+00
p 161 -507 100 0 0 def(OUTP):0.000000000000000e+00
p 161 -507 100 0 0 def(OUTQ):0.000000000000000e+00
p 161 -507 100 0 0 def(OUTR):0.000000000000000e+00
p 161 -507 100 0 0 def(OUTS):0.000000000000000e+00
p 161 -507 100 0 0 def(OUTT):0.000000000000000e+00
p 161 -507 100 0 0 def(OUTU):0.000000000000000e+00
p 96 81 100 0 0 def(SDIS):0.0000000000000000e+00
p 96 -34 100 0 0 def(SUBL):0.0000000000000000e+00
p 496 -384 100 1024 0 name:$(top)$(I)
p 704 426 75 0 -1 palrm(OUTA):NMS
p 704 394 75 0 -1 palrm(OUTB):NMS
p 704 362 75 0 -1 palrm(OUTC):NMS
p 704 330 75 0 -1 palrm(OUTD):NMS
p 704 298 75 0 -1 palrm(OUTE):NMS
p 704 266 75 0 -1 palrm(OUTF):NMS
p 704 234 75 0 -1 palrm(OUTG):NMS
p 704 202 75 0 -1 palrm(OUTH):NMS
p 704 170 75 0 -1 palrm(OUTI):NMS
p 704 138 75 0 -1 palrm(OUTJ):NMS
p 704 106 75 0 -1 palrm(OUTK):NMS
p 704 74 75 0 -1 palrm(OUTL):NMS
p 704 42 75 0 -1 palrm(OUTM):NMS
p 704 10 75 0 -1 palrm(OUTN):NMS
p 704 -22 75 0 -1 palrm(OUTO):NMS
p 704 -54 75 0 -1 palrm(OUTP):NMS
p 704 -86 75 0 -1 palrm(OUTQ):NMS
p 704 -118 75 0 -1 palrm(OUTR):NMS
p 704 -150 75 0 -1 palrm(OUTS):NMS
p 704 -182 75 0 -1 palrm(OUTT):NMS
p 704 -214 75 0 -1 palrm(OUTU):NMS
p 368 -310 75 0 -1 palrm(SDIS):NMS
p 368 -246 75 0 -1 palrm(SUBL):NMS
p 672 426 75 0 -1 pproc(OUTA):NPP
p 672 394 75 0 -1 pproc(OUTB):NPP
p 672 362 75 0 -1 pproc(OUTC):NPP
p 672 330 75 0 -1 pproc(OUTD):NPP
p 672 298 75 0 -1 pproc(OUTE):NPP
p 672 266 75 0 -1 pproc(OUTF):NPP
p 672 234 75 0 -1 pproc(OUTG):NPP
p 672 202 75 0 -1 pproc(OUTH):NPP
p 672 170 75 0 -1 pproc(OUTI):NPP
p 672 138 75 0 -1 pproc(OUTJ):NPP
p 672 106 75 0 -1 pproc(OUTK):NPP
p 672 74 75 0 -1 pproc(OUTL):NPP
p 672 42 75 0 -1 pproc(OUTM):NPP
p 672 10 75 0 -1 pproc(OUTN):NPP
p 672 -22 75 0 -1 pproc(OUTO):NPP
p 672 -54 75 0 -1 pproc(OUTP):NPP
p 672 -86 75 0 -1 pproc(OUTQ):NPP
p 672 -118 75 0 -1 pproc(OUTR):NPP
p 672 -150 75 0 -1 pproc(OUTS):NPP
p 672 -182 75 0 -1 pproc(OUTT):NPP
p 672 -214 75 0 -1 pproc(OUTU):NPP
p 336 -310 75 0 -1 pproc(SDIS):NPP
p 336 -246 75 0 -1 pproc(SUBL):NPP
p 272 446 100 0 0 primitive:egenSub
p 161 -186 100 0 0 typ(FLNK):path
p 161 -218 100 0 0 typ(OUTA):path
p 161 -250 100 0 0 typ(OUTB):path
p 161 -282 100 0 0 typ(OUTC):path
p 161 -314 100 0 0 typ(OUTD):path
p 161 -346 100 0 0 typ(OUTE):path
p 161 -378 100 0 0 typ(OUTF):path
p 161 -410 100 0 0 typ(OUTG):path
p 161 -442 100 0 0 typ(OUTH):path
p 161 -474 100 0 0 typ(OUTI):path
p 161 -506 100 0 0 typ(OUTJ):path
p 161 -506 100 0 0 typ(OUTK):path
p 161 -506 100 0 0 typ(OUTL):path
p 161 -506 100 0 0 typ(OUTM):path
p 161 -506 100 0 0 typ(OUTN):path
p 161 -506 100 0 0 typ(OUTO):path
p 161 -506 100 0 0 typ(OUTP):path
p 161 -506 100 0 0 typ(OUTQ):path
p 161 -506 100 0 0 typ(OUTR):path
p 161 -506 100 0 0 typ(OUTS):path
p 161 -506 100 0 0 typ(OUTT):path
p 161 -506 100 0 0 typ(OUTU):path
p 96 80 100 0 0 typ(SDIS):path
p 96 -34 100 0 0 typ(SUBL):path
[layers]
<symbol>
r 0 448 448 608 -352
v 0 608 -256
672 -256
_
v 0 608 -320
672 -320
_
v 0 608 -288
672 -288
_
v 0 384 128
448 128
_
v 0 384 -256
448 -256
_
v 0 384 -320
448 -320
_
v 0 384 -288
448 -288
_
v 0 384 -192
448 -192
_
v 0 384 -128
448 -128
_
v 0 384 -64
448 -64
_
v 0 384 0
448 0
_
v 0 384 384
448 384
_
v 0 384 320
448 320
_
v 0 384 256
448 256
_
v 0 384 192
448 192
_
v 0 384 64
448 64
_
v 0 608 416
672 416
_
v 0 608 384
672 384
_
v 0 608 352
672 352
_
v 0 608 320
672 320
_
v 0 608 288
672 288
_
v 0 608 256
672 256
_
v 0 608 224
672 224
_
v 0 608 192
672 192
_
v 0 608 160
672 160
_
v 0 608 128
672 128
_
v 0 608 96
672 96
_
v 0 608 64
672 64
_
v 0 608 32
672 32
_
v 0 608 0
672 0
_
v 0 608 -32
672 -32
_
v 0 608 -64
672 -64
_
v 0 608 -96
672 -96
_
v 0 608 -128
672 -128
_
v 0 608 -160
672 -160
_
v 0 608 -192
672 -192
_
v 0 384 -160
448 -160
_
v 0 384 -96
448 -96
_
v 0 384 -32
448 -32
_
v 0 384 32
448 32
_
v 0 384 96
448 96
_
v 0 384 160
448 160
_
v 0 384 224
448 224
_
v 0 384 288
448 288
_
v 0 384 352
448 352
_
v 0 384 416
448 416
_
v 0 384 -224
448 -224
_
v 0 608 -224
672 -224
_
[comments]
RCS: "$Name:  $ $Id: egenSubTReCS.sym,v 0.0 2003/04/25 15:21:15 hon Developmental $"
