[schematic2]
uniq 1432
[tools]
[detail]
w 2844 1547 100 0 n#1431 egenSubTReCS.egenSubTReCS#730.OUTQ 2720 1536 3040 1536 hwout.hwout#1430.outp
w 4452 1387 100 0 n#1408 hwin.hwin#1407.in 4416 1440 4448 1440 4448 1344 4544 1344 egenSub.$(top)$(dev)TCSISnodComplG.J
w 44 363 100 0 n#1396 hwin.hwin#1387.in 0 352 160 352 egenSub.egenSub#1348.INPF
w 44 427 100 0 n#1395 hwin.hwin#1380.in 0 416 160 416 egenSub.egenSub#1348.INPE
w 44 491 100 0 n#1394 hwin.hwin#1354.in 0 480 160 480 egenSub.egenSub#1348.INPD
w 44 555 100 0 n#1393 hwin.hwin#1353.in 0 544 160 544 egenSub.egenSub#1348.INPC
w 44 619 100 0 n#1392 hwin.hwin#1352.in 0 608 160 608 egenSub.egenSub#1348.INPB
w 44 683 100 0 n#1391 hwin.hwin#1351.in 0 672 160 672 egenSub.egenSub#1348.INPA
w 1004 -53 100 0 n#1386 egenSub.egenSub#1348.OUTG 448 288 704 288 704 -64 1376 -64 hwout.hwout#1423.outp
w 556 363 100 0 n#1384 egenSub.egenSub#1348.OUTF 448 352 736 352 736 -32 896 -32 hwout.hwout#1419.outp
w 1532 139 100 0 n#1379 egenSub.egenSub#1348.OUTA 448 672 896 672 896 128 2240 128 2240 1408 2432 1408 egenSubTReCS.egenSubTReCS#730.U
w 1132 -181 100 0 n#1403 efanouts.efanouts#691.LNK1 2624 1056 2720 1056 2720 1152 2304 1152 2304 -192 32 -192 32 0 160 0 egenSub.egenSub#1348.SLNK
w 620 619 100 0 n#1383 egenSub.egenSub#1348.OUTB 448 608 864 608 864 96 896 96 hwout.hwout#322.outp
w 1068 75 100 0 n#1368 egenSub.egenSub#1348.OUTC 448 544 832 544 832 64 1376 64 hwout.hwout#1418.outp
w 588 491 100 0 n#1367 egenSub.egenSub#1348.OUTD 448 480 800 480 800 32 896 32 hwout.hwout#321.outp
w 1036 11 100 0 n#1366 egenSub.egenSub#1348.OUTE 448 416 768 416 768 0 1376 0 hwout.hwout#1420.outp
w 3036 1411 100 0 n#1341 egenSubTReCS.egenSubTReCS#730.OUTU 2720 1408 3424 1408 3424 864 3264 864 3264 768 2656 768 2656 704 2720 704 egenSubB.egenSubB#1339.A
w 2620 411 100 0 n#1374 egenSubTReCS.egenSubTReCS#730.FLNK 2720 1312 3392 1312 3392 896 3232 896 3232 832 2624 832 2624 0 2720 0 egenSubB.egenSubB#1339.SLNK
w 4284 2083 100 0 n#1338 egenSubB.egenSubB#1289.OUTM 4160 2080 4480 2080 hwout.hwout#1337.outp
w 2620 2323 100 0 n#1336 estringouts.estringouts#889.FLNK 2528 2336 2592 2336 2592 2320 2720 2320 estringouts.estringouts#900.SLNK
w 2348 2179 100 0 n#1335 estringouts.estringouts#889.OUT 2528 2304 2624 2304 2624 2176 2144 2176 2144 1984 2432 1984 egenSubTReCS.egenSubTReCS#730.C
w 3244 3043 100 0 n#1343 egenSubTReCS.egenSubTReCS#539.OUTI 2624 3680 2912 3680 2912 3040 3648 3040 3648 2528 4384 2528 4384 2496 4480 2496 4480 2464 hwout.hwout#1193.outp
w 4836 1891 100 0 n#1333 egenSub.$(top)$(dev)TCSISnodComplG.OUTA 4832 1888 4912 1888 hwout.hwout#1332.outp
w 172 3755 100 0 n#1326 egenSubB.egenSubB#347.OUTM -160 3968 0 3968 0 3744 416 3744 ecad20.$(top)$(dev)physical.N
w 1772 3075 100 0 n#1325 eaos.eaos#1321.OUT 1536 3136 1600 3136 1600 3072 2016 3072 2016 3456 2336 3456 egenSubTReCS.egenSubTReCS#539.P
w 860 3435 100 0 n#1324 ecad20.$(top)$(dev)physical.VALO 736 3680 864 3680 864 3200 1280 3200 eaos.eaos#1321.DOL
w 1580 3235 100 0 n#1323 eaos.eaos#1321.FLNK 1536 3200 1568 3200 1568 3232 1664 3232 eaos.eaos#1314.SLNK
w 2124 3491 100 0 n#1320 eaos.eaos#1314.OUT 1920 3200 1984 3200 1984 3488 2336 3488 egenSubTReCS.egenSubTReCS#539.O
w 1564 3331 100 0 n#1318 eaos.eaos#1314.FLNK 1920 3264 1952 3264 1952 3328 1248 3328 1248 3296 928 3296 928 3456 1024 3456 eaos.eaos#1219.SLNK
w 1244 3267 100 0 n#1316 ecad20.$(top)$(dev)physical.VALN 736 3744 896 3744 896 3264 1664 3264 eaos.eaos#1314.DOL
w 188 3811 100 0 n#1315 egenSubB.egenSubB#347.OUTL -160 4000 32 4000 32 3808 416 3808 ecad20.$(top)$(dev)physical.M
w 988 627 100 0 n#1309 ecad20.$(top)$(dev)obsControl.VALS 640 1184 864 1184 864 864 992 864 992 400 1216 400 estringouts.estringouts#1304.DOL
w 2212 859 100 0 n#1307 estringouts.estringouts#1304.OUT 1472 352 1536 352 1536 288 2208 288 2208 1440 2432 1440 egenSubTReCS.egenSubTReCS#730.T
w 1516 443 100 0 n#1306 estringouts.estringouts#1304.FLNK 1472 384 1504 384 1504 432 1600 432 estringouts.estringouts#1198.SLNK
w 204 3875 100 0 n#1293 egenSubB.egenSubB#347.OUTK -160 4032 64 4032 64 3872 416 3872 ecad20.$(top)$(dev)physical.L
w 220 3939 100 0 n#1292 egenSubB.egenSubB#347.OUTJ -160 4064 96 4064 96 3936 416 3936 ecad20.$(top)$(dev)physical.K
w 2940 3531 100 0 n#1342 egenSubB.egenSubB#1289.OUTU 4160 1824 4256 1824 4256 2016 5024 2016 5024 2528 4416 2528 4416 2560 3680 2560 3680 3072 2944 3072 2944 4000 3040 4000 egenSubB.egenSubB#348.A
w 4636 1987 100 0 n#1344 egenSubB.egenSubB#1289.FLNK 4160 1728 4288 1728 4288 1984 5056 1984 5056 2560 4448 2560 4448 2592 3712 2592 3712 3104 2976 3104 2976 3296 3040 3296 egenSubB.egenSubB#348.SLNK
w 1532 171 100 0 n#1376 ecad20.$(top)$(dev)obsControl.STLK 640 896 800 896 800 800 928 800 928 160 2208 160 2208 192 2336 192 2336 976 2384 976 efanouts.efanouts#691.SLNK
w 2012 3523 100 0 n#1283 eaos.eaos#1219.OUT 1280 3424 1344 3424 1344 3360 1760 3360 1760 3520 2336 3520 egenSubTReCS.egenSubTReCS#539.N
w 1996 3555 100 0 n#1282 eaos.eaos#1218.OUT 1664 3488 1728 3488 1728 3552 2336 3552 egenSubTReCS.egenSubTReCS#539.M
w 1996 3587 100 0 n#1281 elongouts.elongouts#885.OUT 1344 3712 1408 3712 1408 3648 1728 3648 1728 3584 2336 3584 egenSubTReCS.egenSubTReCS#539.L
w 2028 3619 100 0 n#1280 estringouts.estringouts#1168.OUT 1728 3792 1792 3792 1792 3616 2336 3616 egenSubTReCS.egenSubTReCS#539.K
w 2044 3683 100 0 n#1279 estringouts.estringouts#1169.OUT 1408 4016 1472 4016 1472 3936 1824 3936 1824 3680 2336 3680 egenSubTReCS.egenSubTReCS#539.I
w 2060 3715 100 0 n#1278 eaos.eaos#909.OUT 1792 4064 1856 4064 1856 3712 2336 3712 egenSubTReCS.egenSubTReCS#539.H
w 1884 3979 100 0 n#1277 eaos.eaos#879.OUT 1408 4288 1472 4288 1472 4224 1888 4224 1888 3744 2336 3744 egenSubTReCS.egenSubTReCS#539.G
w 1916 4059 100 0 n#1276 eaos.eaos#878.OUT 1792 4352 1920 4352 1920 3776 2336 3776 egenSubTReCS.egenSubTReCS#539.F
w 1948 4155 100 0 n#1275 eaos.eaos#877.OUT 1408 4576 1472 4576 1472 4512 1952 4512 1952 3808 2336 3808 egenSubTReCS.egenSubTReCS#539.E
w 1980 4235 100 0 n#1274 eaos.eaos#876.OUT 1792 4640 1984 4640 1984 3840 2336 3840 egenSubTReCS.egenSubTReCS#539.D
w 924 3643 100 0 n#1273 ecad20.$(top)$(dev)physical.VALM 736 3808 928 3808 928 3488 1024 3488 eaos.eaos#1219.DOL
w 1148 3555 100 0 n#1272 ecad20.$(top)$(dev)physical.VALL 736 3872 960 3872 960 3552 1408 3552 eaos.eaos#1218.DOL
w 828 3939 100 0 n#1271 ecad20.$(top)$(dev)physical.VALK 736 3936 992 3936 992 3776 1088 3776 elongouts.elongouts#885.DOL
w 1212 3843 100 0 n#1270 ecad20.$(top)$(dev)physical.VALJ 736 4000 1024 4000 1024 3840 1472 3840 estringouts.estringouts#1168.DOL
w 908 4075 100 0 n#1269 ecad20.$(top)$(dev)physical.VALI 736 4064 1152 4064 estringouts.estringouts#1169.DOL
w 844 4203 100 0 n#1268 ecad20.$(top)$(dev)physical.VALG 736 4192 1024 4192 1024 4352 1152 4352 eaos.eaos#879.DOL
w 1228 4427 100 0 n#1267 ecad20.$(top)$(dev)physical.VALF 736 4256 992 4256 992 4416 1536 4416 eaos.eaos#878.DOL
w 964 4475 100 0 n#1266 ecad20.$(top)$(dev)physical.VALE 736 4320 960 4320 960 4640 1152 4640 eaos.eaos#877.DOL
w 1196 4715 100 0 n#1265 ecad20.$(top)$(dev)physical.VALD 736 4384 928 4384 928 4704 1536 4704 eaos.eaos#876.DOL
w 1100 4131 100 0 n#1227 eaos.eaos#909.DOL 1536 4128 736 4128 ecad20.$(top)$(dev)physical.VALH
w 2236 4259 100 0 n#1224 eaos.eaos#875.OUT 2400 4416 2528 4416 2528 4256 2016 4256 2016 3872 2336 3872 egenSubTReCS.egenSubTReCS#539.C
w 2412 4227 100 0 n#1223 eaos.eaos#874.OUT 2784 4480 2848 4480 2848 4224 2048 4224 2048 3904 2336 3904 egenSubTReCS.egenSubTReCS#539.B
w 2444 4195 100 0 n#1222 elongouts.elongouts#478.OUT 2496 4704 2880 4704 2880 4192 2080 4192 2080 3936 2336 3936 egenSubTReCS.egenSubTReCS#539.A
w 2108 3563 100 0 n#1221 elongouts.elongouts#478.FLNK 2496 4768 2912 4768 2912 4160 2112 4160 2112 2976 2432 2976 trecsLinkEnable.trecsLinkEnable#612.ENABLE
w 1474 3619 100 0 n#614 eaos.eaos#1218.FLNK 1664 3552 1696 3552 1696 3616 1312 3616 1312 3584 992 3584 992 3744 1088 3744 elongouts.elongouts#885.SLNK
w 1324 3523 100 0 n#1216 eaos.eaos#1219.FLNK 1280 3488 1312 3488 1312 3520 1408 3520 eaos.eaos#1218.SLNK
w 1692 2915 100 0 n#1207 estringouts.estringouts#1185.OUT 1632 2912 1824 2912 hwout.hwout#1206.outp
w 956 507 100 0 n#1205 ecad20.$(top)$(dev)obsControl.OUTT 640 1088 832 1088 832 832 960 832 960 192 1184 192 hwout.hwout#1204.outp
w 1628 547 100 0 n#1202 estringouts.estringouts#1198.FLNK 1856 448 1888 448 1888 544 1440 544 1440 512 1120 512 1120 656 1216 656 estringouts.estringouts#904.SLNK
w 1276 467 100 0 n#1201 ecad20.$(top)$(dev)obsControl.VALR 640 1248 896 1248 896 896 1024 896 1024 464 1600 464 estringouts.estringouts#1198.DOL
w 2172 939 100 0 n#1200 estringouts.estringouts#1198.OUT 1856 416 2176 416 2176 1472 2432 1472 egenSubTReCS.egenSubTReCS#730.S
w 4284 2403 100 0 n#1196 egenSubB.egenSubB#1289.OUTC 4160 2400 4480 2400 hwout.hwout#1190.outp
w 4268 2243 100 0 n#1195 egenSubB.egenSubB#1289.OUTH 4160 2240 4448 2240 4448 2272 4480 2272 hwout.hwout#1191.outp
w 4284 2211 100 0 n#1194 egenSubB.egenSubB#1289.OUTI 4160 2208 4480 2208 hwout.hwout#1192.outp
w 1276 2931 100 0 n#1287 efanouts.efanouts#615.LNK3 1152 3008 1248 3008 1248 2928 1376 2928 estringouts.estringouts#1185.SLNK
w 828 3211 100 0 n#1285 ecad20.$(top)$(dev)physical.VALP 736 3616 832 3616 832 2816 1280 2816 1280 2960 1376 2960 estringouts.estringouts#1185.DOL
w 4316 -93 100 0 n#1370 ecars.$(top)$(dev)hardwareC.FLNK 4224 -96 4480 -96 junction
w 3996 203 100 0 n#1370 ecars.$(top)$(dev)physicalC.FLNK 4224 288 4256 288 4256 192 3808 192 junction
w 3996 587 100 0 n#1370 ecars.$(top)$(dev)obsControlC.FLNK 4224 672 4256 672 4256 576 3808 576 junction
w 3804 379 100 0 n#1370 ecars.$(top)$(dev)acqControlC.FLNK 4224 1056 4256 1056 4256 960 3808 960 3808 -192 4480 -192 4480 352 4544 352 egenSubD.egenSubD#1210.SLNK
w 4348 715 100 0 n#1182 ecars.$(top)$(dev)physicalC.VAL 4224 512 4352 512 4352 928 4544 928 egenSubD.egenSubD#1210.INPE
w 4380 667 100 0 n#1181 ecars.$(top)$(dev)physicalC.OMSS 4224 448 4384 448 4384 896 4544 896 egenSubD.egenSubD#1210.INPF
w 4412 491 100 0 n#1180 ecars.$(top)$(dev)hardwareC.VAL 4224 128 4416 128 4416 864 4544 864 egenSubD.egenSubD#1210.INPG
w 4444 443 100 0 n#1179 ecars.$(top)$(dev)hardwareC.OMSS 4224 64 4448 64 4448 832 4544 832 egenSubD.egenSubD#1210.INPH
w 4380 995 100 0 n#1178 ecars.$(top)$(dev)obsControlC.VAL 4224 896 4288 896 4288 992 4544 992 egenSubD.egenSubD#1210.INPC
w 4396 963 100 0 n#1177 ecars.$(top)$(dev)obsControlC.OMSS 4224 832 4320 832 4320 960 4544 960 egenSubD.egenSubD#1210.INPD
w 4380 1115 100 0 n#1176 ecars.$(top)$(dev)acqControlC.OMSS 4224 1216 4384 1216 4384 1024 4544 1024 egenSubD.egenSubD#1210.INPB
w 4412 1163 100 0 n#1175 ecars.$(top)$(dev)acqControlC.VAL 4224 1280 4416 1280 4416 1056 4544 1056 egenSubD.egenSubD#1210.INPA
w 1388 3811 100 0 n#1174 elongouts.elongouts#885.FLNK 1344 3776 1376 3776 1376 3808 1472 3808 estringouts.estringouts#1168.SLNK
w 156 3683 100 0 n#1261 egenSubB.egenSubB#347.OUTN -160 3936 -32 3936 -32 3680 416 3680 ecad20.$(top)$(dev)physical.O
w -52 4099 100 0 n#1159 egenSubB.egenSubB#347.OUTI -160 4096 128 4096 128 4000 416 4000 ecad20.$(top)$(dev)physical.J
w -36 4131 100 0 n#1158 egenSubB.egenSubB#347.OUTH -160 4128 160 4128 160 4064 416 4064 ecad20.$(top)$(dev)physical.I
w -20 4163 100 0 n#1157 egenSubB.egenSubB#347.OUTG -160 4160 192 4160 192 4128 416 4128 ecad20.$(top)$(dev)physical.H
w 92 4195 100 0 n#1156 egenSubB.egenSubB#347.OUTF -160 4192 416 4192 ecad20.$(top)$(dev)physical.G
w -36 4227 100 0 n#1155 egenSubB.egenSubB#347.OUTE -160 4224 160 4224 160 4256 416 4256 ecad20.$(top)$(dev)physical.F
w -52 4259 100 0 n#1154 egenSubB.egenSubB#347.OUTD -160 4256 128 4256 128 4320 416 4320 ecad20.$(top)$(dev)physical.E
w 220 4387 100 0 n#1153 egenSubB.egenSubB#347.OUTC -160 4288 96 4288 96 4384 416 4384 ecad20.$(top)$(dev)physical.D
w 204 4451 100 0 n#1152 egenSubB.egenSubB#347.OUTB -160 4320 64 4320 64 4448 416 4448 ecad20.$(top)$(dev)physical.C
w 188 4515 100 0 n#1151 egenSubB.egenSubB#347.OUTA -160 4352 32 4352 32 4512 416 4512 ecad20.$(top)$(dev)physical.B
w 1516 2171 100 0 n#1132 estringouts.estringouts#893.FLNK 1472 2112 1504 2112 1504 2160 1600 2160 estringouts.estringouts#892.SLNK
w 4684 2819 100 0 n#1130 efanouts.efanouts#451.LNK1 4672 2816 4768 2816 4768 2880 4864 2880 elongouts.elongouts#926.SLNK
w 5404 3163 100 0 n#1118 elongouts.elongouts#926.OUT 5120 2848 5408 2848 5408 3488 5536 3488 egenSubTReCS.egenSubTReCS#937.O
w 5052 3011 100 0 n#1117 estringouts.estringouts#1167.OUT 4736 3088 4800 3088 4800 3008 5376 3008 5376 3520 5536 3520 egenSubTReCS.egenSubTReCS#937.N
w 5340 3347 100 0 n#1116 estringouts.estringouts#1166.OUT 5120 3152 5344 3152 5344 3552 5536 3552 egenSubTReCS.egenSubTReCS#937.M
w 4508 2915 100 0 n#1110 ecad20.$(top)$(dev)hardware.VALN 4128 3392 4224 3392 4224 2912 4864 2912 elongouts.elongouts#926.DOL
w 3452 3811 100 0 n#1106 egenSubB.egenSubB#348.OUTG 3328 3808 3648 3808 3648 3776 3808 3776 ecad20.$(top)$(dev)hardware.H
w 3436 3779 100 0 n#1105 egenSubB.egenSubB#348.OUTH 3328 3776 3616 3776 3616 3712 3808 3712 ecad20.$(top)$(dev)hardware.I
w 3420 3747 100 0 n#1103 egenSubB.egenSubB#348.OUTI 3328 3744 3584 3744 3584 3648 3808 3648 ecad20.$(top)$(dev)hardware.J
w 3644 3587 100 0 n#1102 egenSubB.egenSubB#348.OUTJ 3328 3712 3552 3712 3552 3584 3808 3584 ecad20.$(top)$(dev)hardware.K
w 3628 3523 100 0 n#1101 egenSubB.egenSubB#348.OUTK 3328 3680 3520 3680 3520 3520 3808 3520 ecad20.$(top)$(dev)hardware.L
w 3612 3459 100 0 n#1100 egenSubB.egenSubB#348.OUTL 3328 3648 3488 3648 3488 3456 3808 3456 ecad20.$(top)$(dev)hardware.M
w 3596 3395 100 0 n#1099 egenSubB.egenSubB#348.OUTM 3328 3616 3456 3616 3456 3392 3808 3392 ecad20.$(top)$(dev)hardware.N
w 3532 3843 100 0 n#1098 egenSubB.egenSubB#348.OUTF 3328 3840 3808 3840 ecad20.$(top)$(dev)hardware.G
w 3420 3875 100 0 n#1097 egenSubB.egenSubB#348.OUTE 3328 3872 3584 3872 3584 3904 3808 3904 ecad20.$(top)$(dev)hardware.F
w 3644 3971 100 0 n#1096 egenSubB.egenSubB#348.OUTD 3328 3904 3552 3904 3552 3968 3808 3968 ecad20.$(top)$(dev)hardware.E
w 3628 4035 100 0 n#1095 egenSubB.egenSubB#348.OUTC 3328 3936 3520 3936 3520 4032 3808 4032 ecad20.$(top)$(dev)hardware.D
w 3612 4099 100 0 n#1094 egenSubB.egenSubB#348.OUTB 3328 3968 3488 3968 3488 4096 3808 4096 ecad20.$(top)$(dev)hardware.C
w 3596 4163 100 0 n#1133 egenSubB.egenSubB#348.OUTA 3328 4000 3456 4000 3456 4160 3808 4160 ecad20.$(top)$(dev)hardware.B
w 3420 3995 100 0 n#918 egenSubB.egenSubB#348.OUTN 3328 3584 3424 3584 3424 4416 3808 4416 ecad20.$(top)$(dev)hardware.DIR
w 4924 2987 100 0 n#1009 elongouts.elongouts#926.FLNK 5120 2912 5152 2912 5152 2976 4768 2976 4768 2944 4384 2944 4384 3104 4480 3104 estringouts.estringouts#1167.SLNK
w 4252 3291 100 0 n#1042 ecad20.$(top)$(dev)hardware.VALM 4128 3456 4256 3456 4256 3136 4480 3136 estringouts.estringouts#1167.DOL
w 4540 3203 100 0 n#1037 ecad20.$(top)$(dev)hardware.VALL 4128 3520 4288 3520 4288 3200 4864 3200 estringouts.estringouts#1166.DOL
w 4780 3171 100 0 n#1001 estringouts.estringouts#1167.FLNK 4736 3120 4768 3120 4768 3168 4864 3168 estringouts.estringouts#1166.SLNK
w 4924 3267 100 0 n#1000 estringouts.estringouts#1166.FLNK 5120 3184 5152 3184 5152 3264 4768 3264 4768 3232 4384 3232 4384 3392 4480 3392 elongouts.elongouts#405.SLNK
w 3212 2787 100 0 n#1405 egenSubTReCS.egenSubTReCS#539.OUTU 2624 3296 2880 3296 2880 2784 3616 2784 3616 2464 3872 2464 egenSubB.egenSubB#1289.A
w 1372 2787 100 0 n#1405 egenSubB.egenSubB#347.OUTU -160 3712 -64 3712 -64 2784 2880 2784 junction
w 4188 3587 100 0 n#1028 ecad20.$(top)$(dev)hardware.VALK 4128 3584 4320 3584 4320 3424 4480 3424 elongouts.elongouts#405.DOL
w 4572 3491 100 0 n#1027 ecad20.$(top)$(dev)hardware.VALJ 4128 3648 4352 3648 4352 3488 4864 3488 elongouts.elongouts#404.DOL
w 4268 3715 100 0 n#1026 ecad20.$(top)$(dev)hardware.VALI 4128 3712 4480 3712 elongouts.elongouts#403.DOL
w 4460 3779 100 0 n#1025 ecad20.$(top)$(dev)hardware.VALH 4128 3776 4864 3776 elongouts.elongouts#398.DOL
w 4204 3843 100 0 n#1024 ecad20.$(top)$(dev)hardware.VALG 4128 3840 4352 3840 4352 4000 4480 4000 elongouts.elongouts#397.DOL
w 4556 4067 100 0 n#1023 ecad20.$(top)$(dev)hardware.VALF 4128 3904 4320 3904 4320 4064 4864 4064 elongouts.elongouts#396.DOL
w 4284 4123 100 0 n#1022 ecad20.$(top)$(dev)hardware.VALE 4128 3968 4288 3968 4288 4288 4480 4288 elongouts.elongouts#395.DOL
w 4524 4355 100 0 n#1021 ecad20.$(top)$(dev)hardware.VALD 4128 4032 4256 4032 4256 4352 4864 4352 elongouts.elongouts#394.DOL
w 4220 4331 100 0 n#1041 ecad20.$(top)$(dev)hardware.VALC 4128 4096 4224 4096 4224 4576 4512 4576 elongouts.elongouts#393.DOL
w 5020 3299 100 0 n#1113 elongouts.elongouts#405.OUT 4736 3360 4800 3360 4800 3296 5312 3296 5312 3584 5536 3584 egenSubTReCS.egenSubTReCS#937.L
w 5372 3619 100 0 n#1112 elongouts.elongouts#404.OUT 5120 3424 5280 3424 5280 3616 5536 3616 egenSubTReCS.egenSubTReCS#937.K
w 4988 3587 100 0 n#1115 elongouts.elongouts#403.OUT 4736 3648 4800 3648 4800 3584 5248 3584 5248 3680 5536 3680 egenSubTReCS.egenSubTReCS#937.I
w 5298 3715 100 0 n#938 elongouts.elongouts#398.OUT 5120 3712 5536 3712 egenSubTReCS.egenSubTReCS#937.H
w 4962 3875 100 0 n#936 elongouts.elongouts#397.OUT 4736 3936 4800 3936 4800 3872 5184 3872 5184 3744 5536 3744 egenSubTReCS.egenSubTReCS#937.G
w 5346 3779 100 0 n#935 elongouts.elongouts#396.OUT 5120 4000 5216 4000 5216 3776 5536 3776 egenSubTReCS.egenSubTReCS#937.F
w 4994 4163 100 0 n#929 elongouts.elongouts#395.OUT 4736 4224 4800 4224 4800 4160 5248 4160 5248 3808 5536 3808 egenSubTReCS.egenSubTReCS#937.E
w 5276 4059 100 0 n#928 elongouts.elongouts#394.OUT 5120 4288 5280 4288 5280 3840 5536 3840 egenSubTReCS.egenSubTReCS#937.D
w 5308 4107 100 0 n#927 elongouts.elongouts#393.OUT 4768 4512 5184 4512 5184 4352 5312 4352 5312 3872 5536 3872 egenSubTReCS.egenSubTReCS#937.C
w 1660 227 100 0 n#1377 efanouts.efanouts#691.LNK2 2624 1024 2752 1024 2752 1184 2272 1184 2272 224 1120 224 1120 368 1216 368 estringouts.estringouts#1304.SLNK
w 3042 1251 100 0 n#837 trecsLinkEnable.trecsLinkEnable#664.FLINK 3232 1088 3328 1088 3328 1248 2816 1248 2816 1216 2336 1216 2336 1344 2432 1344 egenSubTReCS.egenSubTReCS#730.SLNK
w 3676 1627 100 0 n#836 elongouts.elongouts#703.FLNK 2592 2624 3104 2624 3104 2048 3680 2048 3680 1216 2848 1216 2848 1120 2912 1120 trecsLinkEnable.trecsLinkEnable#664.ENABLE
w 2140 1035 100 0 n#835 estringouts.estringouts#904.OUT 1472 640 1536 640 1536 576 2144 576 2144 1504 2432 1504 egenSubTReCS.egenSubTReCS#730.R
w 2108 1115 100 0 n#834 estringouts.estringouts#903.OUT 1856 704 2112 704 2112 1536 2432 1536 egenSubTReCS.egenSubTReCS#730.Q
w 2076 1211 100 0 n#833 estringouts.estringouts#902.OUT 1472 928 1536 928 1536 864 2080 864 2080 1568 2432 1568 egenSubTReCS.egenSubTReCS#730.P
w 2044 1291 100 0 n#832 estringouts.estringouts#901.OUT 1856 992 2048 992 2048 1600 2432 1600 egenSubTReCS.egenSubTReCS#730.O
w 1746 1155 100 0 n#831 estringouts.estringouts#899.OUT 1472 1216 1536 1216 1536 1152 2016 1152 2016 1632 2432 1632 egenSubTReCS.egenSubTReCS#730.N
w 2178 1667 100 0 n#830 estringouts.estringouts#897.OUT 1856 1280 1984 1280 1984 1664 2432 1664 egenSubTReCS.egenSubTReCS#730.M
w 2162 1699 100 0 n#829 estringouts.estringouts#898.OUT 1472 1504 1552 1504 1552 1440 1952 1440 1952 1696 2432 1696 egenSubTReCS.egenSubTReCS#730.L
w 2146 1731 100 0 n#828 estringouts.estringouts#895.OUT 1856 1568 1920 1568 1920 1728 2432 1728 egenSubTReCS.egenSubTReCS#730.K
w 2098 1795 100 0 n#827 estringouts.estringouts#896.OUT 1472 1792 1536 1792 1536 1728 1824 1728 1824 1792 2432 1792 egenSubTReCS.egenSubTReCS#730.I
w 2178 1827 100 0 n#826 estringouts.estringouts#894.OUT 1856 1856 1984 1856 1984 1824 2432 1824 egenSubTReCS.egenSubTReCS#730.H
w 1714 2019 100 0 n#672 estringouts.estringouts#893.OUT 1472 2080 1472 2016 2016 2016 2016 1856 2432 1856 egenSubTReCS.egenSubTReCS#730.G
w 2210 1891 100 0 n#824 estringouts.estringouts#892.OUT 1856 2144 2048 2144 2048 1888 2432 1888 egenSubTReCS.egenSubTReCS#730.F
w 1746 2307 100 0 n#823 estringouts.estringouts#891.OUT 1472 2368 1472 2304 2080 2304 2080 1920 2432 1920 egenSubTReCS.egenSubTReCS#730.E
w 2108 2187 100 0 n#822 estringouts.estringouts#888.OUT 1856 2432 2112 2432 2112 1952 2432 1952 egenSubTReCS.egenSubTReCS#730.D
w 1970 2467 100 0 n#814 estringouts.estringouts#888.FLNK 1856 2464 2144 2464 2144 2320 2272 2320 estringouts.estringouts#889.SLNK
w 2610 2115 100 0 n#816 elongouts.elongouts#703.OUT 2592 2560 3072 2560 3072 2112 2208 2112 2208 2048 2432 2048 egenSubTReCS.egenSubTReCS#730.A
w 2578 2147 100 0 n#820 estringouts.estringouts#900.OUT 2976 2304 3040 2304 3040 2144 2176 2144 2176 2016 2432 2016 egenSubTReCS.egenSubTReCS#730.B
w 924 1115 100 0 n#721 ecad20.$(top)$(dev)obsControl.VALQ 640 1312 928 1312 928 928 1056 928 1056 688 1216 688 estringouts.estringouts#904.DOL
w 1314 755 100 0 n#720 ecad20.$(top)$(dev)obsControl.VALP 640 1376 960 1376 960 960 1088 960 1088 752 1600 752 estringouts.estringouts#903.DOL
w 988 1187 100 0 n#719 ecad20.$(top)$(dev)obsControl.VALO 640 1440 912 1440 912 1408 992 1408 992 976 1216 976 estringouts.estringouts#902.DOL
w 1282 1043 100 0 n#718 ecad20.$(top)$(dev)obsControl.VALN 640 1504 944 1504 944 1440 1024 1440 1024 1040 1600 1040 estringouts.estringouts#901.DOL
w 778 1571 100 0 n#717 ecad20.$(top)$(dev)obsControl.VALM 640 1568 976 1568 976 1472 1056 1472 1056 1264 1216 1264 estringouts.estringouts#899.DOL
w 1314 1331 100 0 n#716 ecad20.$(top)$(dev)obsControl.VALL 640 1632 1008 1632 1008 1504 1088 1504 1088 1328 1600 1328 estringouts.estringouts#897.DOL
w 818 1699 100 0 n#715 ecad20.$(top)$(dev)obsControl.VALK 640 1696 1056 1696 1056 1552 1216 1552 estringouts.estringouts#898.DOL
w 1314 1619 100 0 n#714 ecad20.$(top)$(dev)obsControl.VALJ 640 1760 1088 1760 1088 1616 1600 1616 estringouts.estringouts#895.DOL
w 1026 1843 100 0 n#713 ecad20.$(top)$(dev)obsControl.VALI 640 1824 896 1824 896 1840 1216 1840 estringouts.estringouts#896.DOL
w 1490 2627 100 0 n#712 ecad20.$(top)$(dev)obsControl.VALA 640 2336 704 2336 704 2624 2336 2624 elongouts.elongouts#703.DOL
w 1442 2563 100 0 n#711 ecad20.$(top)$(dev)obsControl.VALB 640 2272 736 2272 736 2560 2208 2560 2208 2400 2624 2400 2624 2352 2720 2352 estringouts.estringouts#900.DOL
w 1442 2531 100 0 n#710 ecad20.$(top)$(dev)obsControl.VALC 640 2208 768 2208 768 2528 2176 2528 2176 2352 2272 2352 estringouts.estringouts#889.DOL
w 1170 2483 100 0 n#709 ecad20.$(top)$(dev)obsControl.VALD 640 2144 800 2144 800 2480 1600 2480 estringouts.estringouts#888.DOL
w 994 2419 100 0 n#708 ecad20.$(top)$(dev)obsControl.VALE 640 2080 832 2080 832 2416 1216 2416 estringouts.estringouts#891.DOL
w 1202 2195 100 0 n#707 ecad20.$(top)$(dev)obsControl.VALF 640 2016 864 2016 864 2192 1600 2192 estringouts.estringouts#892.DOL
w 1026 2131 100 0 n#706 ecad20.$(top)$(dev)obsControl.VALG 640 1952 896 1952 896 2128 1216 2128 estringouts.estringouts#893.DOL
w 1074 1891 100 0 n#705 estringouts.estringouts#894.DOL 1600 1904 1568 1904 1568 1888 640 1888 ecad20.$(top)$(dev)obsControl.VALH
w 2610 2435 100 0 n#890 estringouts.estringouts#900.FLNK 2976 2336 3040 2336 3040 2432 2240 2432 2240 2592 2336 2592 elongouts.elongouts#703.SLNK
w 1522 1011 100 0 n#694 estringouts.estringouts#902.FLNK 1472 960 1504 960 1504 1008 1600 1008 estringouts.estringouts#901.SLNK
w 1474 803 100 0 n#693 estringouts.estringouts#903.FLNK 1856 736 1888 736 1888 800 1120 800 1120 944 1216 944 estringouts.estringouts#902.SLNK
w 1522 723 100 0 n#692 estringouts.estringouts#904.FLNK 1472 672 1504 672 1504 720 1600 720 estringouts.estringouts#903.SLNK
w 2690 995 100 0 n#676 efanouts.efanouts#691.LNK3 2624 992 2816 992 2816 1056 2912 1056 trecsLinkEnable.trecsLinkEnable#664.SLINK
w 1474 1091 100 0 n#675 estringouts.estringouts#901.FLNK 1856 1024 1888 1024 1888 1088 1120 1088 1120 1232 1216 1232 estringouts.estringouts#899.SLNK
w 1522 2451 100 0 n#673 estringouts.estringouts#891.FLNK 1472 2400 1504 2400 1504 2448 1600 2448 estringouts.estringouts#888.SLNK
w 1474 2243 100 0 n#671 estringouts.estringouts#892.FLNK 1856 2176 1888 2176 1888 2240 1120 2240 1120 2384 1216 2384 estringouts.estringouts#891.SLNK
w 1474 1955 100 0 n#670 estringouts.estringouts#894.FLNK 1856 1888 1888 1888 1888 1952 1120 1952 1120 2096 1216 2096 estringouts.estringouts#893.SLNK
w 1522 1875 100 0 n#669 estringouts.estringouts#896.FLNK 1472 1824 1504 1824 1504 1872 1600 1872 estringouts.estringouts#894.SLNK
w 1474 1667 100 0 n#668 estringouts.estringouts#895.FLNK 1856 1600 1888 1600 1888 1664 1120 1664 1120 1808 1216 1808 estringouts.estringouts#896.SLNK
w 1522 1587 100 0 n#667 estringouts.estringouts#898.FLNK 1472 1536 1504 1536 1504 1584 1600 1584 estringouts.estringouts#895.SLNK
w 1474 1379 100 0 n#666 estringouts.estringouts#897.FLNK 1856 1312 1888 1312 1888 1376 1120 1376 1120 1520 1216 1520 estringouts.estringouts#898.SLNK
w 1522 1299 100 0 n#665 estringouts.estringouts#899.FLNK 1472 1248 1504 1248 1504 1296 1600 1296 estringouts.estringouts#897.SLNK
w 2444 3107 100 0 n#1220 trecsLinkEnable.trecsLinkEnable#612.FLINK 2752 2944 2816 2944 2816 3104 2144 3104 2144 3232 2336 3232 egenSubTReCS.egenSubTReCS#539.SLNK
w 796 3059 100 0 n#1313 ecad20.$(top)$(dev)physical.STLK 736 3136 800 3136 800 2992 912 2992 efanouts.efanouts#615.SLNK
w 1212 3115 100 0 n#1322 efanouts.efanouts#615.LNK1 1152 3072 1216 3072 1216 3168 1280 3168 eaos.eaos#1321.SLNK
w 1634 3011 100 0 n#996 efanouts.efanouts#615.LNK2 1152 3040 1280 3040 1280 3008 2048 3008 2048 2944 2400 2944 2400 2912 2432 2912 trecsLinkEnable.trecsLinkEnable#612.SLINK
w 3180 2755 100 0 n#1300 egenSubTReCS.egenSubTReCS#539.FLNK 2624 3200 2848 3200 2848 2752 3584 2752 3584 2432 3808 2432 3808 1760 3872 1760 egenSubB.egenSubB#1289.SLNK
w 1324 2755 100 0 n#1300 egenSubB.egenSubB#347.FLNK -160 3616 -128 3616 -128 2752 2848 2752 junction
w 1292 2723 100 0 n#1375 egenSubB.egenSubB#1339.FLNK 3008 -32 3776 -32 3776 1024 3744 1024 3744 2112 3168 2112 3168 2720 -512 2720 -512 3648 -448 3648 egenSubB.egenSubB#347.SLNK
w 1436 4771 100 0 n#1264 ecad20.$(top)$(dev)physical.VALC 736 4448 896 4448 896 4768 2048 4768 2048 4480 2144 4480 eaos.eaos#875.DOL
w 1436 4803 100 0 n#1248 ecad20.$(top)$(dev)physical.VALB 736 4512 864 4512 864 4800 2080 4800 2080 4544 2528 4544 eaos.eaos#874.DOL
w 1436 4835 100 0 n#1237 ecad20.$(top)$(dev)physical.VALA 736 4576 832 4576 832 4832 2112 4832 2112 4768 2240 4768 elongouts.elongouts#478.DOL
w -68 4251 100 0 n#1150 egenSubB.egenSubB#347.OUTT -160 3744 -64 3744 -64 4768 416 4768 ecad20.$(top)$(dev)physical.DIR
w 2306 4579 100 0 n#470 eaos.eaos#874.FLNK 2784 4544 2848 4544 2848 4608 2560 4608 2560 4576 2112 4576 2112 4736 2240 4736 elongouts.elongouts#478.SLNK
w 2450 4515 100 0 n#469 eaos.eaos#875.FLNK 2400 4480 2432 4480 2432 4512 2528 4512 eaos.eaos#874.SLNK
w 1458 4675 100 0 n#468 eaos.eaos#877.FLNK 1408 4640 1440 4640 1440 4672 1536 4672 eaos.eaos#876.SLNK
w 2012 4571 100 0 n#1226 eaos.eaos#876.FLNK 1792 4704 2016 4704 2016 4448 2144 4448 eaos.eaos#875.SLNK
w 1250 4451 100 0 n#466 eaos.eaos#878.FLNK 1792 4416 1824 4416 1824 4480 1504 4480 1504 4448 1056 4448 1056 4608 1152 4608 eaos.eaos#877.SLNK
w 1458 4387 100 0 n#465 eaos.eaos#879.FLNK 1408 4352 1440 4352 1440 4384 1536 4384 eaos.eaos#878.SLNK
w 1250 4163 100 0 n#464 eaos.eaos#909.FLNK 1792 4128 1824 4128 1824 4192 1504 4192 1504 4160 1056 4160 1056 4320 1152 4320 eaos.eaos#879.SLNK
w 1458 4099 100 0 n#463 estringouts.estringouts#1169.FLNK 1408 4048 1440 4048 1440 4096 1536 4096 eaos.eaos#909.SLNK
w 1538 3907 100 0 n#462 estringouts.estringouts#1168.FLNK 1728 3824 1760 3824 1760 3904 1376 3904 1376 3872 1056 3872 1056 4032 1152 4032 estringouts.estringouts#1169.SLNK
w 1260 2691 100 0 n#1406 egenSubB.egenSubB#1339.OUTU 3008 64 3744 64 3744 992 3712 992 3712 2080 3136 2080 3136 2688 -544 2688 -544 4352 -448 4352 egenSubB.egenSubB#347.A
w 6076 3851 100 0 n#455 elongouts.elongouts#399.FLNK 5632 4640 6080 4640 6080 3072 5600 3072 5600 2976 5632 2976 trecsLinkEnable.trecsLinkEnable#427.ENABLE
w 5676 3107 100 0 n#1114 trecsLinkEnable.trecsLinkEnable#427.FLINK 5952 2944 5984 2944 5984 3104 5440 3104 5440 3232 5536 3232 egenSubTReCS.egenSubTReCS#937.SLNK
w 5180 2723 100 0 n#1129 efanouts.efanouts#451.LNK2 4672 2784 4832 2784 4832 2720 5600 2720 5600 2912 5632 2912 trecsLinkEnable.trecsLinkEnable#427.SLINK
w 5650 4227 100 0 n#449 elongouts.elongouts#392.OUT 5952 4352 6016 4352 6016 4224 5344 4224 5344 3904 5536 3904 egenSubTReCS.egenSubTReCS#937.B
w 5682 4195 100 0 n#450 elongouts.elongouts#399.OUT 5632 4576 6048 4576 6048 4192 5376 4192 5376 3936 5536 3936 egenSubTReCS.egenSubTReCS#937.A
w 5442 4467 100 0 n#417 elongouts.elongouts#392.FLNK 5952 4416 5984 4416 5984 4480 5664 4480 5664 4464 5280 4464 5280 4608 5376 4608 elongouts.elongouts#399.SLNK
w 5426 4387 100 0 n#416 elongouts.elongouts#393.FLNK 4768 4576 5216 4576 5216 4384 5696 4384 elongouts.elongouts#392.SLNK
w 4786 4323 100 0 n#415 elongouts.elongouts#395.FLNK 4736 4288 4768 4288 4768 4320 4864 4320 elongouts.elongouts#394.SLNK
w 4578 4387 100 0 n#414 elongouts.elongouts#394.FLNK 5120 4352 5120 4351 5152 4351 5152 4416 4800 4416 4800 4384 4416 4384 4416 4544 4512 4544 elongouts.elongouts#393.SLNK
w 4578 4099 100 0 n#413 elongouts.elongouts#396.FLNK 5120 4064 5152 4064 5152 4128 4832 4128 4832 4096 4384 4096 4384 4256 4480 4256 elongouts.elongouts#395.SLNK
w 4786 4035 100 0 n#412 elongouts.elongouts#397.FLNK 4736 4000 4768 4000 4768 4032 4864 4032 elongouts.elongouts#396.SLNK
w 4578 3811 100 0 n#411 elongouts.elongouts#398.FLNK 5120 3776 5152 3776 5152 3840 4832 3840 4832 3808 4384 3808 4384 3968 4480 3968 elongouts.elongouts#397.SLNK
w 4786 3747 100 0 n#410 elongouts.elongouts#403.FLNK 4736 3712 4768 3712 4768 3744 4864 3744 elongouts.elongouts#398.SLNK
w 4562 3523 100 0 n#409 elongouts.elongouts#404.FLNK 5120 3488 5152 3488 5152 3552 4800 3552 4800 3520 4384 3520 4384 3680 4480 3680 elongouts.elongouts#403.SLNK
w 4786 3459 100 0 n#408 elongouts.elongouts#405.FLNK 4736 3424 4768 3424 4768 3456 4864 3456 elongouts.elongouts#404.SLNK
w 3090 675 100 0 n#660 egenSubB.egenSubB#1339.OUTB 3008 672 3232 672 hwout.hwout#328.outp
w 3074 707 100 0 n#663 egenSubB.egenSubB#1339.OUTA 3008 704 3200 704 3200 736 3232 736 hwout.hwout#327.outp
w 4860 835 100 0 n#1007 egenSubD.egenSubD#1210.OUTD 4832 832 4960 832 4960 704 4976 704 hwout.hwout#308.outp
w 4924 699 100 0 n#1008 egenSubD.egenSubD#1210.OUTE 4832 768 4928 768 4928 640 4976 640 hwout.hwout#309.outp
w 4948 1059 100 0 n#1006 egenSubD.egenSubD#1210.OUTB 4832 960 4928 960 4928 1056 5040 1056 ecars.$(top)$(dev)applyC.IVAL
w 4860 1027 100 0 n#1005 egenSubD.egenSubD#1210.OUTA 4832 1024 4960 1024 4960 992 5040 992 ecars.$(top)$(dev)applyC.IMSS
w 4276 2739 100 0 n#1109 ecad20.$(top)$(dev)hardware.STLK 4128 2784 4192 2784 4192 2736 4432 2736 efanouts.efanouts#451.SLNK
w 4677 4644 120 0 n#1128 ecad20.$(top)$(dev)hardware.VALB 4128 4160 4192 4160 4192 4640 5248 4640 5248 4416 5696 4416 elongouts.elongouts#392.DOL
w 4677 4676 120 0 n#1127 ecad20.$(top)$(dev)hardware.VALA 4128 4224 4160 4224 4160 4672 5280 4672 5280 4640 5376 4640 elongouts.elongouts#399.DOL
s 2783 1801 100 0 Lambda low
s 2783 1769 100 0 Lambda hi
s 2783 1513 100 0 window name
s 2273 1415 100 0 Env Data
s 2272 1546 100 0 window name
s 2272 1994 100 0 nod settle time
s 2272 1866 100 0 readout mode
s 2208 1680 100 0 save frequency
s 2272 1482 100 0 chopThrow
s 2272 2058 100 0 command mode
s 2272 1610 100 0 sector name
s 2272 1578 100 0 slit name
s 2272 1642 100 0 lyot name
s 2208 1706 100 0 preValid Chop Time
s 2272 1802 100 0 grating name
s 2272 1834 100 0 filter name
s 2224 1738 100 0 central wavelength
s 2272 1514 100 0 throughput
s 2272 1962 100 0 camera mode
s 2272 1930 100 0 obs_mode
s 2272 1898 100 0 on source time
s 2272 2026 100 0 nod time
s 2272 1450 100 0 frame time
s 528 304 100 0 rotator rate
s 528 368 100 0 tel Emissivity
s 528 432 100 0 ambient temp
s 528 560 100 0 air mass
s 528 624 100 0 sky background
s 528 496 100 0 sky noise
s -64 560 100 0 sky noise
s -64 688 100 0 sky background
s 0 1376 120 0 window name
s 0 2208 120 0 nod settle time
s 0 1952 120 0 readout mode
s 4368 1360 100 0 input signal
s 4227 2092 100 0 FrameDutyCycle
s 4227 2122 100 0 postValidChopTime
s 4228 2154 100 0 preValidChopTime
s 2687 3628 100 0 preValidChopTime
s 2686 3596 100 0 postValidChopTime
s 2180 3592 100 0 flag
s 2143 3559 100 0 preValidChopTime
s 2131 3527 100 0 postValidChopTime
s 2180 3496 100 0 spare 1
s 2181 3465 100 0 spare 2
s 194 3949 120 0 flag
s 185 3757 120 0 spare 1
s 185 3692 120 0 spare 2
s 0 1632 120 0 save frequency
s -64 368 100 0 rotator rate
s 187 3817 120 0 postValidChopTime
s 187 3882 120 0 preValidChopTime
s 0 1248 120 0 chopThrow
s 5888 3536 100 0 readout mode
s 5888 3568 100 0 obs mode
s 5392 3557 100 0 obs mode
s 5392 3525 100 0 readout mode
s 3648 3536 100 0 obs mode
s 3648 3472 100 0 readout mode
s 3644 3591 100 0 pstchps_c
s 3644 3656 100 0 prechps_c
s 3655 3721 100 0 pixclock
s 3672 3782 100 0 nodsets
s 3657 3847 100 0 savesets
s 3617 3914 100 0 nodsettle_r
s 3614 3976 100 0 nodsettle_c
s 3627 4043 100 0 chpcoadd_c
s 3610 4110 100 0 chpsettle_r
s 3656 4167 100 0 frmcoadd
s 3603 4229 100 0 command mode
s 0 2336 120 0 command mode
s 5890 3920 120 0 socket number
s 5890 3952 120 0 command mode
s 5394 3945 100 0 command mode
s 0 1504 120 0 sector name
s -64 432 100 0 tel Emissivity
s 0 1440 120 0 slit name
s 0 1568 120 0 lyot name
s -64 496 100 0 ambient temp
s 0 1696 120 0 preValid Chop Time
s 0 1824 120 0 grating name
s 0 1888 120 0 filter name
s 0 1760 120 0 central wavelength
s -64 624 100 0 air mass
s 0 1312 120 0 throughput
s 5029 152 225 0 mce4_conf_14.sch 1/31/2002 12:13 PM EST
s 0 2144 120 0 camera mode
s 194 4520 120 0 FrameTime
s 194 4459 120 0 SaveFrequency
s 194 4394 120 0 OnSourceTime
s 194 4332 120 0 ChopFreq
s 194 4265 120 0 SCSDutyCycle
s 194 4199 120 0 NodDwelTime
s 200 4137 120 0 NodSettleTime
s 0 2080 120 0 obs_mode
s 194 4069 120 0 ObsMode
s 194 4007 120 0 ReadoutMode
s 0 2016 120 0 on source time
s 5890 3883 120 0 frmcoadd
s 5887 3850 120 0 chpsettle_r
s 5887 3817 120 0 chpcoadd_c
s 5889 3786 120 0 nodsettle_c
s 5887 3756 120 0 nodsettle_r
s 5887 3723 120 0 savesets
s 5889 3690 120 0 nodsets
s 5887 3661 120 0 pixclock
s 5889 3628 120 0 prechps_c
s 5889 3593 120 0 pstchps_c
s 2783 2057 100 0 sim mode
s 2783 2025 100 0 socket number
s 194 4578 120 0 Command Mode
s 5392 3911 100 0 frmcoadd
s 5389 3878 100 0 chpsettle_r
s 5389 3845 100 0 chpcoadd_c
s 5391 3814 100 0 nodsettle_c
s 5389 3784 100 0 nodsettle_r
s 5389 3751 100 0 savesets
s 5391 3718 100 0 nodsets
s 5389 3689 100 0 pixclock
s 5392 3629 100 0 prechps_c
s 5392 3594 100 0 pstchps_c
s 4225 2248 100 0 mce4ChopDutyCycl
s 4226 2217 100 0 mce4NodDutyCycl
s 2182 3910 100 0 FrameTime
s 2182 3882 100 0 SaveFrequency
s 2182 3845 100 0 OnSourceTime
s 2182 3819 100 0 ChopFreq
s 2182 3785 100 0 SCSDutyCycle
s 2182 3754 100 0 NodDwelTime
s 2182 3721 100 0 NodSettleTime
s 2182 3686 100 0 ObsMode
s 2182 3621 100 0 ReadoutMode
s 2182 3944 100 0 Command Mode
s 2687 3946 100 0 Command Mode
s 2687 3912 100 0 Socket Number
s 2687 3881 100 0 FrameTime
s 2687 3853 100 0 SaveFrequency
s 2687 3816 100 0 onSourceTime
s 2687 3790 100 0 ChopFreq
s 1712 2928 100 0 SCS Duty Cycle
s 2690 3754 100 0 NodDwelTime
s 2690 3721 100 0 NodSettleTime
s 2691 3690 100 0 ObsMode
s 2691 3656 100 0 ReadoutMode
s 4226 2470 100 0 FrameTimeO
s 4226 2438 100 0 SaveFrequencyO
s 4226 2405 100 0 OnSourceTimeO
s 4226 2378 100 0 ChopFreqO
s 4227 2343 100 0 ChopSettleTimeO
s 4226 2309 100 0 NodeDwelTimeO
s 4225 2277 100 0 NodSettleTimeO
s 4224 2185 100 0 SCSFrequency
s 2783 1961 100 0 readout mode
s 2783 1865 100 0 chopThrow
s 2783 1609 100 0 sector name
s 2783 1577 100 0 slit name
s 2783 1641 100 0 lyot name
s 2783 1833 100 0 preValid Chop Time
s 2783 1705 100 0 grating name
s 2783 1737 100 0 filter name
s 2783 1673 100 0 central wavelength
s 2783 1545 100 0 throughput
s 2783 1929 100 0 camera mode
s 2783 1993 100 0 obs_mode
s 2783 1897 100 0 on source time
s 3072 712 100 0 set point
s 3072 680 100 0 heater power
s 0 2272 120 0 nod time
s 0 1184 120 0 frame time
s 3072 648 100 0 MetaFrameTime
s 528 688 100 0 environment data array
[cell use]
use hwout 4480 2039 100 0 hwout#1337
xform 0 4576 2080
p 4688 2064 100 0 -1 val(outp):$(dc)acqControlG.T NPP NMS
use hwout 4912 1847 100 0 hwout#1332
xform 0 5008 1888
p 5008 1879 100 0 -1 val(outp):
use hwout 1824 2871 100 0 hwout#1206
xform 0 1920 2912
p 2026 2903 100 0 -1 val(outp):$(sad)scsDutyCycle.VAL PP NMS
use hwout 1184 151 100 0 hwout#1204
xform 0 1280 192
p 1386 185 100 0 -1 val(outp):$(sad)chopThrow.VAL PP NMS
use hwout 3232 631 100 0 hwout#328
xform 0 3328 672
p 3435 663 100 0 -1 val(outp):$(sad)hPowerReq PP NMS
use hwout 3232 695 100 0 hwout#327
xform 0 3328 736
p 3435 726 100 0 -1 val(outp):$(sad)hSetpointReq PP NMS
use hwout 896 55 100 0 hwout#322
xform 0 992 96
p 1099 87 100 0 -1 val(outp):$(sad)skyBackground.VAL PP NMS
use hwout 896 -9 100 0 hwout#321
xform 0 992 32
p 1099 24 100 0 -1 val(outp):$(sad)skyNoise.VAL PP NMS
use hwout 4976 663 100 0 hwout#308
xform 0 5072 704
p 5178 696 100 0 -1 val(outp):$(sad)dcState.VAL PP NMS
use hwout 4976 599 100 0 hwout#309
xform 0 5072 640
p 5178 632 100 0 -1 val(outp):$(sad)dcHealth.VAL PP NMS
use hwout 4480 2359 100 0 hwout#1190
xform 0 4576 2400
p 4682 2387 100 0 -1 val(outp):$(dc)acqControlG.Q NPP NMS
use hwout 4480 2231 100 0 hwout#1191
xform 0 4576 2272
p 4682 2265 100 0 -1 val(outp):$(dc)acqControlG.R NPP NMS
use hwout 4480 2167 100 0 hwout#1192
xform 0 4576 2208
p 4682 2200 100 0 -1 val(outp):$(dc)acqControlG.S NPP NMS
use hwout 4480 2423 100 0 hwout#1193
xform 0 4576 2464
p 4682 2458 100 0 -1 val(outp):$(dc)acqControlG.P NPP NMS
use hwout 1376 23 100 0 hwout#1418
xform 0 1472 64
p 1579 55 100 0 -1 val(outp):$(sad)airMass.VAL PP NMS
use hwout 896 -73 100 0 hwout#1419
xform 0 992 -32
p 1099 -40 100 0 -1 val(outp):$(sad)emissivity.VAL PP NMS
use hwout 1376 -41 100 0 hwout#1420
xform 0 1472 0
p 1579 -9 100 0 -1 val(outp):$(sad)externalTemp.VAL PP NMS
use hwout 1376 -105 100 0 hwout#1423
xform 0 1472 -64
p 1579 -73 100 0 -1 val(outp):$(sad)rotatorRate.VAL PP NMS
use hwout 3040 1495 100 0 hwout#1430
xform 0 3136 1536
p 3264 1536 100 0 -1 val(outp):$(sad)opticalEfficiency.VAL PP NPS
use hwin 4224 1399 100 0 hwin#1407
xform 0 4320 1440
p 4227 1432 100 0 -1 val(in):
use hwin -192 311 100 0 hwin#1387
xform 0 -96 352
p -208 352 100 512 -1 val(in):$(top)observationSetup.VALI
use hwin -192 375 100 0 hwin#1380
xform 0 -96 416
p -208 416 100 512 -1 val(in):$(top)observationSetup.VALH
use hwin -192 439 100 0 hwin#1354
xform 0 -96 480
p -208 480 100 512 -1 val(in):$(top)observationSetup.VALG
use hwin -192 503 100 0 hwin#1353
xform 0 -96 544
p -208 544 100 512 -1 val(in):$(top)observationSetup.VALD
use hwin -192 567 100 0 hwin#1352
xform 0 -96 608
p -208 608 100 512 -1 val(in):$(top)observationSetup.VALF
use hwin -192 631 100 0 hwin#1351
xform 0 -96 672
p -208 672 100 512 -1 val(in):$(top)observationSetup.VALE
use be200tr -672 -344 -100 0 frame
xform 0 2768 2320
use egenSub 160 -89 100 0 egenSub#1348
xform 0 304 336
p -63 -315 100 0 0 FTA:STRING
p -63 -315 100 0 0 FTB:STRING
p -63 -347 100 0 0 FTC:STRING
p -63 -379 100 0 0 FTD:STRING
p -63 -411 100 0 0 FTE:STRING
p -63 -475 100 0 0 FTF:STRING
p -63 -475 100 0 0 FTG:STRING
p -63 -507 100 0 0 FTH:STRING
p -63 -539 100 0 0 FTI:STRING
p -63 -571 100 0 0 FTJ:LONG
p 224 -128 100 0 1 FTVA:DOUBLE
p -63 -315 100 0 0 FTVB:STRING
p -63 -347 100 0 0 FTVC:STRING
p -63 -379 100 0 0 FTVD:STRING
p -63 -411 100 0 0 FTVE:STRING
p -63 -475 100 0 0 FTVF:STRING
p -63 -475 100 0 0 FTVG:STRING
p -63 -507 100 0 0 FTVH:STRING
p -63 -539 100 0 0 FTVI:STRING
p -63 -571 100 0 0 FTVJ:LONG
p -128 318 100 0 0 INAM:ufMetaEnvGinit
p 224 -160 100 0 1 NOVA:10
p -128 462 100 0 0 PREC:3
p 192 -128 100 0 0 SCAN:Passive
p -128 286 100 0 0 SNAM:ufMetaEnvGproc
p 272 -96 100 1024 -1 name:$(dc)MetaEnvG
p 448 618 75 0 -1 pproc(OUTB):PP
p 448 554 75 0 -1 pproc(OUTC):PP
p 448 490 75 0 -1 pproc(OUTD):PP
p 448 426 75 0 -1 pproc(OUTE):PP
p 448 362 75 0 -1 pproc(OUTF):PP
p 448 298 75 0 -1 pproc(OUTG):PP
p 448 234 75 0 -1 pproc(OUTH):PP
p 448 170 75 0 -1 pproc(OUTI):PP
use egenSub 4544 1127 -100 0 $(top)$(dev)TCSISnodComplG
xform 0 4688 1552
p 4387 1867 100 0 0 DESC:TCS->IS Nod Complete Flag
p 4321 837 100 0 0 FTD:DOUBLE
p 4321 645 100 0 0 FTJ:STRING
p 4321 901 100 0 0 FTVA:STRING
p 4256 1534 100 0 0 INAM:ufTCSISnodComplGinit
p 4256 1502 100 0 0 SNAM:ufTCSISnodComplGproc
p 4656 1120 100 1024 -1 name:$(dc)TCSISnodComplG
p 4832 1898 75 0 -1 pproc(OUTA):PP
use egenSubB 3872 1671 100 0 egenSubB#1289
xform 0 4016 2096
p 3649 1445 100 0 0 FTA:STRING
p 3649 1445 100 0 0 FTVA:STRING
p 3649 1445 100 0 0 FTVB:STRING
p 3649 1413 100 0 0 FTVC:STRING
p 3649 1381 100 0 0 FTVD:STRING
p 3649 1349 100 0 0 FTVE:STRING
p 3649 1285 100 0 0 FTVF:STRING
p 3649 1285 100 0 0 FTVG:STRING
p 3649 1253 100 0 0 FTVH:STRING
p 3649 1221 100 0 0 FTVI:STRING
p 3649 1189 100 0 0 FTVJ:STRING
p 3649 1189 100 0 0 FTVK:STRING
p 3649 1189 100 0 0 FTVL:STRING
p 3649 1189 100 0 0 FTVM:STRING
p 3649 1189 100 0 0 FTVN:STRING
p 3649 1189 100 0 0 FTVO:STRING
p 3649 1189 100 0 0 FTVU:STRING
p 3584 2078 100 0 0 INAM:ufphysOutGGinit
p 3649 1093 100 0 0 NOA:25
p 3649 805 100 0 0 NOU:12
p 3649 805 100 0 0 NOVU:12
p 3584 2046 100 0 0 SNAM:ufphysOutGGproc
p 3984 1664 100 1024 -1 name:$(dc)physOutG
p 4160 2474 75 0 -1 pproc(OUTA):PP
use egenSubB 3040 3207 100 0 egenSubB#348
xform 0 3184 3632
p 2817 2981 100 0 0 FTA:STRING
p 2817 2981 100 0 0 FTVA:STRING
p 2817 2981 100 0 0 FTVB:STRING
p 2817 2949 100 0 0 FTVC:STRING
p 2817 2917 100 0 0 FTVD:STRING
p 2817 2885 100 0 0 FTVE:STRING
p 2817 2821 100 0 0 FTVF:STRING
p 2817 2821 100 0 0 FTVG:STRING
p 2817 2789 100 0 0 FTVH:STRING
p 2817 2757 100 0 0 FTVI:STRING
p 2817 2725 100 0 0 FTVJ:STRING
p 2817 2725 100 0 0 FTVK:STRING
p 2817 2725 100 0 0 FTVL:STRING
p 2817 2725 100 0 0 FTVM:STRING
p 2817 2725 100 0 0 FTVN:STRING
p 2752 3614 100 0 0 INAM:ufadjHrdwrGinit
p 2817 2629 100 0 0 NOA:12
p 2752 3582 100 0 0 SNAM:ufadjHrdwrGproc
p 3152 3200 100 1024 -1 name:$(dc)adjHrdwrG
p 3328 3594 75 0 -1 pproc(OUTN):PP
use egenSubB -448 3559 100 0 egenSubB#347
xform 0 -304 3984
p -671 3333 100 0 0 FTA:STRING
p -671 3333 100 0 0 FTVA:STRING
p -671 3333 100 0 0 FTVB:STRING
p -671 3301 100 0 0 FTVC:STRING
p -671 3269 100 0 0 FTVD:STRING
p -671 3237 100 0 0 FTVE:STRING
p -671 3173 100 0 0 FTVF:STRING
p -671 3173 100 0 0 FTVG:STRING
p -671 3141 100 0 0 FTVH:STRING
p -671 3109 100 0 0 FTVI:STRING
p -671 3077 100 0 0 FTVJ:STRING
p -671 3077 100 0 0 FTVK:STRING
p -671 3077 100 0 0 FTVL:STRING
p -671 3077 100 0 0 FTVM:STRING
p -671 3077 100 0 0 FTVN:STRING
p -671 3077 100 0 0 FTVT:STRING
p -671 3077 100 0 0 FTVU:STRING
p -736 3966 100 0 0 INAM:ufadjPhysGinit
p -671 2981 100 0 0 NOA:25
p -671 2693 100 0 0 NOVU:25
p -736 3934 100 0 0 SNAM:ufadjPhysGproc
p -336 3552 100 1024 -1 name:$(dc)adjPhysG
use egenSubB 2720 -89 100 0 egenSubB#1339
xform 0 2864 336
p 2497 -315 100 0 0 FTA:STRING
p 2497 -315 100 0 0 FTVA:STRING
p 2497 -315 100 0 0 FTVB:STRING
p 2497 -347 100 0 0 FTVC:STRING
p 2497 -379 100 0 0 FTVD:STRING
p 2497 -411 100 0 0 FTVE:STRING
p 2497 -475 100 0 0 FTVF:STRING
p 2497 -475 100 0 0 FTVG:STRING
p 2497 -507 100 0 0 FTVH:STRING
p 2497 -539 100 0 0 FTVI:STRING
p 2497 -571 100 0 0 FTVJ:STRING
p 2497 -571 100 0 0 FTVK:STRING
p 2497 -571 100 0 0 FTVL:STRING
p 2497 -571 100 0 0 FTVM:STRING
p 2497 -571 100 0 0 FTVN:STRING
p 2497 -571 100 0 0 FTVO:STRING
p 2497 -571 100 0 0 FTVP:STRING
p 2497 -571 100 0 0 FTVQ:STRING
p 2497 -571 100 0 0 FTVR:STRING
p 2497 -571 100 0 0 FTVS:STRING
p 2497 -571 100 0 0 FTVT:STRING
p 2497 -571 100 0 0 FTVU:STRING
p 2432 318 100 0 0 INAM:ufDCMetaOutGinit
p 2497 -667 100 0 0 NOA:28
p 2497 -955 100 0 0 NOVU:25
p 2432 286 100 0 0 SNAM:ufDCMetaOutGproc
p 2832 -96 100 1024 -1 name:$(dc)DCMetaOutG
p 3008 714 75 0 -1 pproc(OUTA):PP
p 3008 682 75 0 -1 pproc(OUTB):PP
p 3008 650 75 0 -1 pproc(OUTC):PP
p 3008 618 75 0 -1 pproc(OUTD):PP
p 3008 586 75 0 -1 pproc(OUTE):PP
p 3008 554 75 0 -1 pproc(OUTF):PP
p 3008 522 75 0 -1 pproc(OUTG):PP
p 3008 490 75 0 -1 pproc(OUTH):PP
p 3008 458 75 0 -1 pproc(OUTI):PP
p 3008 426 75 0 -1 pproc(OUTJ):PP
p 3008 394 75 0 -1 pproc(OUTK):PP
p 3008 362 75 0 -1 pproc(OUTL):PP
p 3008 330 75 0 -1 pproc(OUTM):PP
p 3008 298 75 0 -1 pproc(OUTN):PP
p 3008 266 75 0 -1 pproc(OUTO):PP
p 3008 234 75 0 -1 pproc(OUTP):PP
p 3008 202 75 0 -1 pproc(OUTQ):PP
p 3008 170 75 0 -1 pproc(OUTR):PP
p 3008 138 75 0 -1 pproc(OUTS):PP
p 3008 106 75 0 -1 pproc(OUTT):PP
use eaos 1280 3079 100 0 eaos#1321
xform 0 1408 3168
p 1296 3040 100 0 1 OMSL:closed_loop
p 1296 3072 100 768 -1 name:$(dc)spare2
use eaos 1664 3143 100 0 eaos#1314
xform 0 1792 3232
p 1680 3104 100 0 1 OMSL:closed_loop
p 1680 3136 100 768 -1 name:$(dc)spare1
use eaos 1024 3367 100 0 eaos#1219
xform 0 1152 3456
p 1040 3328 100 0 1 OMSL:closed_loop
p 1040 3360 100 768 -1 name:$(dc)pstValChopTmW
use eaos 1408 3431 100 0 eaos#1218
xform 0 1536 3520
p 1424 3392 100 0 1 OMSL:closed_loop
p 1424 3424 100 768 -1 name:$(dc)pprValChpTimeW
use eaos 1152 4231 100 0 eaos#879
xform 0 1280 4320
p 1169 4199 100 0 1 OMSL:closed_loop
p 896 4174 100 0 0 PREC:5
p 1171 4223 100 768 -1 name:$(dc)pNdTmW
use eaos 1536 4295 100 0 eaos#878
xform 0 1664 4384
p 1552 4256 100 0 1 OMSL:closed_loop
p 1280 4238 100 0 0 PREC:5
p 1552 4288 100 768 -1 name:$(dc)pSCSDtCclW
use eaos 1152 4519 100 0 eaos#877
xform 0 1280 4608
p 1168 4480 100 0 1 OMSL:closed_loop
p 896 4462 100 0 0 PREC:5
p 1168 4512 100 768 -1 name:$(dc)pChpFrqW
use eaos 1536 4583 100 0 eaos#876
xform 0 1664 4672
p 1552 4544 100 0 1 OMSL:closed_loop
p 1280 4526 100 0 0 PREC:5
p 1552 4576 100 768 -1 name:$(dc)pOnSrcTmW
use eaos 2144 4359 100 0 eaos#875
xform 0 2272 4448
p 2160 4320 100 0 1 OMSL:closed_loop
p 2160 4352 100 768 -1 name:$(dc)pSvFrqW
use eaos 2528 4423 100 0 eaos#874
xform 0 2656 4512
p 2544 4384 100 0 1 OMSL:closed_loop
p 2272 4366 100 0 0 PREC:5
p 2544 4416 100 768 -1 name:$(dc)pFrmTimeW
use eaos 1536 4007 100 0 eaos#909
xform 0 1664 4096
p 1552 3968 100 0 1 OMSL:closed_loop
p 1280 3950 100 0 0 PREC:5
p 1552 4000 100 768 -1 name:$(dc)pNodDlyW
use estringouts 1216 295 100 0 estringouts#1304
xform 0 1344 368
p 1232 256 100 0 1 OMSL:closed_loop
p 1232 288 100 768 -1 name:$(dc)resolutionW
use estringouts 1600 359 100 0 estringouts#1198
xform 0 1728 432
p 1616 320 100 0 1 OMSL:closed_loop
p 1616 352 100 768 -1 name:$(dc)ChpThrW
use estringouts 1216 583 100 0 estringouts#904
xform 0 1344 656
p 1232 544 100 0 1 OMSL:closed_loop
p 1232 576 100 768 -1 name:$(dc)mThrptW
use estringouts 1600 647 100 0 estringouts#903
xform 0 1728 720
p 1616 608 100 0 1 OMSL:closed_loop
p 1616 640 100 768 -1 name:$(dc)mWndNm
use estringouts 1216 871 100 0 estringouts#902
xform 0 1344 944
p 1232 832 100 0 1 OMSL:closed_loop
p 1232 864 100 768 -1 name:$(dc)mSltNmW
use estringouts 1600 935 100 0 estringouts#901
xform 0 1728 1008
p 1616 896 100 0 1 OMSL:closed_loop
p 1616 928 100 768 -1 name:$(dc)mSctNmW
use estringouts 2720 2247 100 0 estringouts#900
xform 0 2848 2320
p 2736 2192 100 0 1 OMSL:closed_loop
p 2736 2224 100 768 -1 name:$(dc)mFlxBkgdW
use estringouts 1216 1159 100 0 estringouts#899
xform 0 1344 1232
p 1232 1120 100 0 1 OMSL:closed_loop
p 1232 1152 100 768 -1 name:$(dc)mLytNmW
use estringouts 1216 1447 100 0 estringouts#898
xform 0 1344 1520
p 1232 1408 100 0 1 OMSL:closed_loop
p 1232 1440 100 768 -1 name:$(dc)mImgModeW
use estringouts 1600 1223 100 0 estringouts#897
xform 0 1728 1296
p 1616 1184 100 0 1 OMSL:closed_loop
p 1616 1216 100 768 -1 name:$(dc)mPplNmW
use estringouts 1216 1735 100 0 estringouts#896
xform 0 1344 1808
p 1232 1696 100 0 1 OMSL:closed_loop
p 1232 1728 100 768 -1 name:$(dc)mGrtngNmW
use estringouts 1600 1511 100 0 estringouts#895
xform 0 1728 1584
p 1616 1472 100 0 1 OMSL:closed_loop
p 1616 1504 100 768 -1 name:$(dc)mCntWvLenW
use estringouts 1600 1799 100 0 estringouts#894
xform 0 1728 1872
p 1616 1760 100 0 1 OMSL:closed_loop
p 1616 1792 100 768 -1 name:$(dc)mFltrNmW
use estringouts 1216 2023 100 0 estringouts#893
xform 0 1344 2096
p 1232 1984 100 0 1 OMSL:closed_loop
p 1232 2016 100 768 -1 name:$(dc)mAprtrNmW
use estringouts 1600 2087 100 0 estringouts#892
xform 0 1728 2160
p 1616 2048 100 0 1 OMSL:closed_loop
p 1616 2080 100 768 -1 name:$(dc)mOnSrcTmW
use estringouts 1216 2311 100 0 estringouts#891
xform 0 1344 2384
p 1232 2272 100 0 1 OMSL:closed_loop
p 1232 2304 100 768 -1 name:$(dc)mObsmodeW
use estringouts 2272 2247 100 0 estringouts#889
xform 0 2400 2320
p 2288 2192 100 0 1 OMSL:closed_loop
p 2288 2224 100 768 -1 name:$(dc)mFlxNsW
use estringouts 1600 2375 100 0 estringouts#888
xform 0 1728 2448
p 1616 2336 100 0 1 OMSL:closed_loop
p 1616 2368 100 768 -1 name:$(dc)mCamModeW
use estringouts 4864 3095 100 0 estringouts#1166
xform 0 4992 3168
p 4880 3040 100 0 1 OMSL:closed_loop
p 4880 3072 100 768 -1 name:$(dc)hObsMdW
use estringouts 4480 3031 100 0 estringouts#1167
xform 0 4608 3104
p 4496 2976 100 0 1 OMSL:closed_loop
p 4496 3008 100 768 -1 name:$(dc)hRdModeW
use estringouts 1472 3735 100 0 estringouts#1168
xform 0 1600 3808
p 1488 3680 100 0 1 OMSL:closed_loop
p 1488 3712 100 768 -1 name:$(dc)pRdOutMdW
use estringouts 1152 3959 100 0 estringouts#1169
xform 0 1280 4032
p 1168 3904 100 0 1 OMSL:closed_loop
p 1168 3936 100 768 -1 name:$(dc)pObsMdW
use estringouts 1376 2855 100 0 estringouts#1185
xform 0 1504 2928
p 1392 2800 100 0 1 OMSL:closed_loop
p 1392 2832 100 768 -1 name:$(dc)SCSDtyCcl
use egenSubD 4544 263 100 0 egenSubD#1210
xform 0 4688 688
p 4321 37 100 0 0 FTA:LONG
p 4321 37 100 0 0 FTB:STRING
p 4321 5 100 0 0 FTC:LONG
p 4321 -27 100 0 0 FTD:STRING
p 4321 -59 100 0 0 FTE:LONG
p 4321 -123 100 0 0 FTF:STRING
p 4321 -123 100 0 0 FTG:LONG
p 4321 -155 100 0 0 FTH:STRING
p 4321 37 100 0 0 FTVA:STRING
p 4321 37 100 0 0 FTVB:LONG
p 4321 5 100 0 0 FTVC:LONG
p 4321 -27 100 0 0 FTVD:STRING
p 4321 -59 100 0 0 FTVE:STRING
p 4256 670 100 0 0 INAM:uftrecsNullGInit
p 4256 638 100 0 0 SNAM:uftrecsCmdCombineGProcess
p 4656 256 100 1024 -1 name:$(dc)MrgCarG
p 4496 778 75 0 -1 pproc(INPJ):NPP
p 4832 970 75 0 -1 pproc(OUTB):PP
p 4832 906 75 0 -1 pproc(OUTC):NPP
p 4832 842 75 0 -1 pproc(OUTD):PP
p 4832 778 75 0 -1 pproc(OUTE):PP
use elongouts 1088 3655 100 0 elongouts#885
xform 0 1216 3744
p 1104 3616 100 0 1 OMSL:closed_loop
p 1104 3648 100 768 -1 name:$(dc)pFlag
use elongouts 2336 2503 100 0 elongouts#703
xform 0 2464 2592
p 2368 2464 100 0 1 OMSL:closed_loop
p 2368 2496 100 768 -1 name:$(dc)mCmodeW
use elongouts 2240 4647 100 0 elongouts#478
xform 0 2368 4736
p 2256 4608 100 0 1 OMSL:closed_loop
p 2256 4640 100 768 -1 name:$(dc)pCmodeW
use elongouts 4480 3303 100 0 elongouts#405
xform 0 4608 3392
p 4512 3264 100 0 1 OMSL:closed_loop
p 4512 3296 100 768 -1 name:$(dc)hpstchpsW
use elongouts 4864 3367 100 0 elongouts#404
xform 0 4992 3456
p 4896 3328 100 0 1 OMSL:closed_loop
p 4896 3360 100 768 -1 name:$(dc)hprechpsW
use elongouts 4480 3591 100 0 elongouts#403
xform 0 4608 3680
p 4512 3552 100 0 1 OMSL:closed_loop
p 4512 3584 100 768 -1 name:$(dc)hpxclockW
use elongouts 5376 4519 100 0 elongouts#399
xform 0 5504 4608
p 5408 4480 100 0 1 OMSL:closed_loop
p 5472 4512 100 1024 -1 name:$(dc)hCmodeW
use elongouts 4864 3655 100 0 elongouts#398
xform 0 4992 3744
p 4896 3616 100 0 1 OMSL:closed_loop
p 4896 3648 100 768 -1 name:$(dc)hNodesetsW
use elongouts 4480 3879 100 0 elongouts#397
xform 0 4608 3968
p 4512 3840 100 0 1 OMSL:closed_loop
p 4512 3872 100 768 -1 name:$(dc)hSavesetsW
use elongouts 4864 3943 100 0 elongouts#396
xform 0 4992 4032
p 4896 3904 100 0 1 OMSL:closed_loop
p 4896 3936 100 768 -1 name:$(dc)hndstlrW
use elongouts 4480 4167 100 0 elongouts#395
xform 0 4608 4256
p 4512 4128 100 0 1 OMSL:closed_loop
p 4512 4160 100 768 -1 name:$(dc)hNodstlW
use elongouts 4864 4231 100 0 elongouts#394
xform 0 4992 4320
p 4896 4192 100 0 1 OMSL:closed_loop
p 4896 4224 100 768 -1 name:$(dc)hchpcoadcW
use elongouts 4512 4455 100 0 elongouts#393
xform 0 4640 4544
p 4544 4416 100 0 1 OMSL:closed_loop
p 4544 4448 100 768 -1 name:$(dc)hChpstlrW
use elongouts 5696 4295 100 0 elongouts#392
xform 0 5824 4384
p 5728 4256 100 0 1 OMSL:closed_loop
p 5728 4288 100 768 -1 name:$(dc)hFrmcoaddW
use elongouts 4864 2791 100 0 elongouts#926
xform 0 4992 2880
p 4880 2752 100 0 1 OMSL:closed_loop
p 4880 2784 100 768 -1 name:$(dc)hFlag
use egenSubTReCS 2336 3143 100 0 egenSubTReCS#539
xform 0 2480 3568
p 2179 3883 100 0 0 DESC:Physical Parameters Gensub
p 2113 2917 100 0 0 FTA:LONG
p 2113 2693 100 0 0 FTI:STRING
p 2113 2661 100 0 0 FTJ:STRING
p 2113 2661 100 0 0 FTK:STRING
p 2113 2661 100 0 0 FTL:LONG
p 2113 2661 100 0 0 FTM:DOUBLE
p 2113 2917 100 0 0 FTVA:LONG
p 2113 2917 100 0 0 FTVB:LONG
p 2113 2885 100 0 0 FTVC:DOUBLE
p 2113 2853 100 0 0 FTVD:DOUBLE
p 2113 2821 100 0 0 FTVE:DOUBLE
p 2113 2757 100 0 0 FTVF:DOUBLE
p 2113 2757 100 0 0 FTVG:DOUBLE
p 2113 2725 100 0 0 FTVH:DOUBLE
p 2113 2693 100 0 0 FTVI:STRING
p 2113 2661 100 0 0 FTVJ:STRING
p 2113 2661 100 0 0 FTVK:DOUBLE
p 2113 2661 100 0 0 FTVL:DOUBLE
p 2113 2661 100 0 0 FTVM:STRING
p 2113 2661 100 0 0 FTVN:STRING
p 2113 2661 100 0 0 FTVO:STRING
p 2113 2661 100 0 0 FTVP:STRING
p 2113 2661 100 0 0 FTVQ:STRING
p 2113 2661 100 0 0 FTVR:STRING
p 2113 2661 100 0 0 FTVS:STRING
p 2113 2661 100 0 0 FTVT:STRING
p 2113 2661 100 0 0 FTVU:STRING
p 2048 3550 100 0 0 INAM:ufphysicalGinit
p 2113 2277 100 0 0 NOVU:25
p 2048 3694 100 0 0 PREC:2
p 2048 3518 100 0 0 SNAM:ufphysicalGproc
p 2448 3136 100 1024 -1 name:$(dc)physicalG
p 2624 3882 75 0 -1 pproc(OUTC):PP
p 2624 3690 75 0 -1 pproc(OUTI):NPP
p 2624 3562 75 0 -1 pproc(OUTM):NPP
p 2624 3402 75 0 -1 pproc(OUTR):NPP
p 2624 3370 75 0 -1 pproc(OUTS):NPP
use egenSubTReCS 2432 1255 100 0 egenSubTReCS#730
xform 0 2576 1680
p 2209 1029 100 0 0 FTA:LONG
p 2209 1029 100 0 0 FTB:STRING
p 2209 997 100 0 0 FTC:STRING
p 2209 965 100 0 0 FTD:STRING
p 2209 933 100 0 0 FTE:STRING
p 2209 869 100 0 0 FTF:STRING
p 2209 869 100 0 0 FTG:STRING
p 2209 837 100 0 0 FTH:STRING
p 2209 805 100 0 0 FTI:STRING
p 2209 773 100 0 0 FTJ:STRING
p 2209 773 100 0 0 FTK:STRING
p 2209 773 100 0 0 FTL:STRING
p 2209 773 100 0 0 FTM:STRING
p 2209 773 100 0 0 FTN:STRING
p 2209 773 100 0 0 FTO:STRING
p 2209 773 100 0 0 FTP:STRING
p 2209 773 100 0 0 FTQ:STRING
p 2209 773 100 0 0 FTR:STRING
p 2209 773 100 0 0 FTS:STRING
p 2209 773 100 0 0 FTT:STRING
p 2209 773 100 0 0 FTU:DOUBLE
p 2209 1029 100 0 0 FTVA:LONG
p 2209 1029 100 0 0 FTVB:LONG
p 2209 997 100 0 0 FTVC:STRING
p 2209 965 100 0 0 FTVD:STRING
p 2209 933 100 0 0 FTVE:STRING
p 2209 869 100 0 0 FTVF:STRING
p 2209 869 100 0 0 FTVG:STRING
p 2209 837 100 0 0 FTVH:STRING
p 2209 805 100 0 0 FTVI:STRING
p 2209 773 100 0 0 FTVJ:STRING
p 2209 773 100 0 0 FTVK:STRING
p 2209 773 100 0 0 FTVL:STRING
p 2209 773 100 0 0 FTVM:STRING
p 2209 773 100 0 0 FTVN:STRING
p 2209 773 100 0 0 FTVO:STRING
p 2209 773 100 0 0 FTVP:STRING
p 2209 773 100 0 0 FTVQ:STRING
p 2209 773 100 0 0 FTVR:STRING
p 2209 773 100 0 0 FTVS:STRING
p 2209 773 100 0 0 FTVT:STRING
p 2209 773 100 0 0 FTVU:STRING
p 2144 1662 100 0 0 INAM:ufobsControlGinit
p 2209 389 100 0 0 NOU:8
p 2209 389 100 0 0 NOVU:28
p 2144 1630 100 0 0 SNAM:ufobsControlGproc
p 2544 1248 100 1024 -1 name:$(dc)obsControlG
p 2720 1994 75 0 -1 pproc(OUTC):PP
p 2720 1962 75 0 -1 pproc(OUTD):PP
p 2720 1930 75 0 -1 pproc(OUTE):PP
p 2720 1898 75 0 -1 pproc(OUTF):PP
p 2720 1866 75 0 -1 pproc(OUTG):PP
p 2720 1834 75 0 -1 pproc(OUTH):PP
p 2720 1802 75 0 -1 pproc(OUTI):PP
p 2720 1770 75 0 -1 pproc(OUTJ):PP
p 2720 1738 75 0 -1 pproc(OUTK):PP
p 2720 1706 75 0 -1 pproc(OUTL):PP
p 2720 1674 75 0 -1 pproc(OUTM):PP
p 2720 1642 75 0 -1 pproc(OUTN):PP
p 2720 1610 75 0 -1 pproc(OUTO):PP
p 2720 1578 75 0 -1 pproc(OUTP):PP
p 2720 1546 75 0 -1 pproc(OUTQ):PP
p 2720 1514 75 0 -1 pproc(OUTR):PP
p 2720 1482 75 0 -1 pproc(OUTS):PP
p 2720 1450 75 0 -1 pproc(OUTT):PP
use egenSubTReCS 5536 3143 100 0 egenSubTReCS#937
xform 0 5680 3568
p 5313 2917 100 0 0 FTA:LONG
p 5313 2917 100 0 0 FTB:LONG
p 5313 2885 100 0 0 FTC:LONG
p 5313 2853 100 0 0 FTD:LONG
p 5313 2821 100 0 0 FTE:LONG
p 5313 2757 100 0 0 FTF:LONG
p 5313 2757 100 0 0 FTG:LONG
p 5313 2725 100 0 0 FTH:LONG
p 5313 2693 100 0 0 FTI:LONG
p 5313 2661 100 0 0 FTJ:STRING
p 5313 2661 100 0 0 FTK:LONG
p 5313 2661 100 0 0 FTL:LONG
p 5313 2661 100 0 0 FTM:STRING
p 5313 2661 100 0 0 FTN:STRING
p 5313 2661 100 0 0 FTO:LONG
p 5313 2917 100 0 0 FTVA:LONG
p 5313 2917 100 0 0 FTVB:LONG
p 5313 2885 100 0 0 FTVC:LONG
p 5313 2853 100 0 0 FTVD:LONG
p 5313 2821 100 0 0 FTVE:LONG
p 5313 2757 100 0 0 FTVF:LONG
p 5313 2757 100 0 0 FTVG:LONG
p 5313 2725 100 0 0 FTVH:LONG
p 5313 2693 100 0 0 FTVI:LONG
p 5313 2661 100 0 0 FTVJ:LONG
p 5313 2661 100 0 0 FTVK:LONG
p 5313 2661 100 0 0 FTVL:LONG
p 5313 2661 100 0 0 FTVM:STRING
p 5313 2661 100 0 0 FTVN:STRING
p 5248 3550 100 0 0 INAM:ufhardwareGinit
p 5248 3518 100 0 0 SNAM:ufhardwareGproc
p 5648 3136 100 1024 -1 name:$(dc)hardwareG
use efanouts 2384 839 100 0 efanouts#691
xform 0 2504 992
p 2496 832 100 1024 -1 name:$(dc)mFanout
use efanouts 4432 2599 100 0 efanouts#451
xform 0 4552 2752
p 4544 2592 100 1024 -1 name:$(dc)hfanout
p 4704 2816 75 1280 -1 pproc(LNK1):NPP
use efanouts 912 2855 100 0 efanouts#615
xform 0 1032 3008
p 1024 2848 100 1024 -1 name:$(dc)pFanout
use trecsLinkEnable 2912 967 100 0 trecsLinkEnable#664
xform 0 3072 1088
p 2912 960 100 0 1 setSystem:system $(dc)m
use trecsLinkEnable 5632 2823 100 0 trecsLinkEnable#427
xform 0 5792 2944
p 5632 2816 100 0 1 setSystem:system $(dc)h
use trecsLinkEnable 2432 2823 100 0 trecsLinkEnable#612
xform 0 2592 2944
p 2432 2816 100 0 1 setSystem:system $(dc)p
use ecars 3904 999 -100 0 $(top)$(dev)acqControlC
xform 0 4064 1168
p 4000 1216 100 0 0 DESC:acq Control CAR
p 4016 992 100 1024 -1 name:$(dc)acqControlC
use ecars 3904 -153 -100 0 $(top)$(dev)hardwareC
xform 0 4064 16
p 4000 64 100 0 0 DESC:Detecor Hardware CAR
p 4016 -160 100 1024 -1 name:$(dc)hardwareC
use ecars 3904 231 -100 0 $(top)$(dev)physicalC
xform 0 4064 400
p 4000 448 100 0 0 DESC:Detector Physcal Parameters CAR 
p 4016 224 100 1024 -1 name:$(dc)physicalC
use ecars 3904 615 -100 0 $(top)$(dev)obsControlC
xform 0 4064 784
p 4000 832 100 0 0 DESC:Observation Control CAR
p 4016 608 100 1024 -1 name:$(dc)obsControlC
use ecars 5040 771 -120 0 $(top)$(dev)applyC
xform 0 5200 944
p 5136 992 100 0 0 DESC:Detector Controller CAR
p 5152 768 100 1024 -1 name:$(dc)applyC
use ecad20 320 807 -100 0 $(top)$(dev)obsControl
xform 0 480 1696
p 416 2432 100 0 0 DESC:Observation Control CAD
p 416 2272 100 0 0 FTVA:LONG
p 416 1408 100 0 0 SNAM:dcObsCommand
p 432 800 100 1024 -1 name:$(dc)obsControl
p 288 1088 75 1280 -1 pproc(INPT):PP
p 640 906 75 0 -1 pproc(STLK):PP
use ecad20 416 3047 -100 0 $(top)$(dev)physical
xform 0 576 3936
p 512 4672 100 0 0 DESC:Detector Physical Parameters CAD
p 512 4512 100 0 0 FTVA:LONG
p 512 4480 100 0 0 FTVB:DOUBLE
p 512 4448 100 0 0 FTVC:DOUBLE
p 512 4416 100 0 0 FTVD:DOUBLE
p 512 4384 100 0 0 FTVE:DOUBLE
p 512 4352 100 0 0 FTVF:DOUBLE
p 512 4320 100 0 0 FTVG:DOUBLE
p 512 4288 100 0 0 FTVH:DOUBLE
p 512 4256 100 0 0 FTVI:STRING
p 512 4224 100 0 0 FTVJ:STRING
p 512 4192 100 0 0 FTVK:LONG
p 512 4160 100 0 0 FTVL:DOUBLE
p 512 4128 100 0 0 FTVM:DOUBLE
p 512 4096 100 0 0 FTVN:DOUBLE
p 512 4064 100 0 0 FTVO:DOUBLE
p 512 3648 100 0 0 SNAM:dcPhysicalCommand
p 528 3040 100 1024 -1 name:$(dc)physical
p 736 3146 75 0 -1 pproc(STLK):PP
use ecad20 3808 2695 -100 0 $(top)$(dev)hardware
xform 0 3968 3584
p 3904 4320 100 0 0 DESC:Detector Hardware CAD
p 3904 4160 100 0 0 FTVA:LONG
p 3904 4128 100 0 0 FTVB:LONG
p 3904 4096 100 0 0 FTVC:LONG
p 3904 4064 100 0 0 FTVD:LONG
p 3904 4032 100 0 0 FTVE:LONG
p 3904 4000 100 0 0 FTVF:LONG
p 3904 3968 100 0 0 FTVG:LONG
p 3904 3936 100 0 0 FTVH:LONG
p 3904 3904 100 0 0 FTVI:LONG
p 3904 3872 100 0 0 FTVJ:LONG
p 3904 3840 100 0 0 FTVK:LONG
p 3904 3808 100 0 0 FTVL:STRING
p 3904 3776 100 0 0 FTVM:STRING
p 3904 3744 100 0 0 FTVN:LONG
p 3904 3296 100 0 0 SNAM:dcHrdwrCommand
p 3920 2688 100 1024 -1 name:$(dc)hardware
p 4128 3616 75 768 -1 pproc(OUTJ):NPP
p 4128 2794 75 0 -1 pproc(STLK):PP
[comments]
RCS: "$Name:  $ $Id: trecsDcConfig.sch,v 0.0 2003/04/25 15:21:15 hon Developmental $"
