[symbol2]
bbox -480 256 224 288
uniq 0
[tools]
[attributes]
p -420 196 100 0 0 primitive:changeBar
[layers]
<symbol>
r 0 80 256 224 288
r 0 -48 256 80 288
r 0 -432 256 -48 288
r 0 -480 256 -432 288
[comments]
RCS: $Name:  $ $Id: changeBar.sym,v 0.0 2005/09/01 20:20:10 drashkin Exp $
