[symbol2]
bbox -224 256 512 608
uniq 210
[tools]
[attributes]
[layers]
<symbol>
l 100 0 0 80 288 flamDcStatus
r 0 -224 256 512 608
[comments]
RCS: $Name:  $ $Id: flamDcStatus.sym,v 0.0 2005/09/01 20:20:10 drashkin Exp $
