[symbol2]
bbox 32 32 288 704
uniq 34
[tools]
[attributes]
[layers]
<symbol>
l 100 0 0 100 363 flamControl
r 0 32 32 288 704
[comments]
RCS: $Name:  $ $Id: flamControl.sym,v 0.0 2005/09/01 20:20:10 drashkin Exp $
