[symbol2]
bbox 32 32 448 608
uniq 3
[tools]
[attributes]
[layers]
<symbol>
l 100 0 0 186 315 flamMain
r 0 32 32 448 608
[comments]
RCS: $Name:  $ $Id: flamMain.sym,v 0.0 2005/09/01 20:20:10 drashkin Exp $
