[symbol2]
bbox 352 96 656 352
port 623 169 100 1792 HSCN symbol 2 656 160 0
port 389 297 100 1792 MTOL symbol 1 352 288 0
port 389 265 100 1792 PTIP symbol 1 352 256 0
port 623 265 100 1792 BDL symbol 2 656 256 0
port 623 329 100 1792 SPR1 symbol 2 656 320 0
port 623 297 100 1792 ADLC symbol 2 656 288 0
port 623 201 100 1792 RVAL symbol 2 656 192 0
port 623 137 100 1792 FLNK symbol 2 656 128 0
port 616 233 100 1792 VAL symbol 2 656 224 0
port 389 233 100 1792 INRB symbol 1 352 224 0
port 389 169 100 1792 SLNK symbol 1 352 160 0
port 368 200 100 0 SCAN symbol 1 352 192 0
uniq 19
[tools]
[attributes]
p 280 450 100 0 0 primitive:box
p 480 256 100 0 -1 Type:box
p 132 442 100 0 0 DESC:Danfysik/Box/Dogleg Record
p 96 270 100 0 0 SCAN:Passive
p 96 270 100 0 0 PINI:YES
p 96 334 100 0 0 PHAS:0
p 96 302 100 0 0 EVNT:0
p 96 -50 100 0 0 DISV:1
p 96 -260 100 0 0 SDIS:0.000000000000000e+00
p 320 302 100 0 0 DISS:NO_ALARM
p 320 14 100 0 0 PRIO:LOW
p 96 -210 100 0 0 INHY:0.000000000000000e+00
p 96 -210 100 0 0 INKL:0.000000000000000e+00
p 96 -210 100 0 0 INRG:0.000000000000000e+00
p 96 -210 100 0 0 IHVP:0.000000000000000e+00
p 96 -210 100 0 0 ISP1:0.000000000000000e+00
p 96 -210 100 0 0 XFER:0
p 96 -210 100 0 0 SPAR:0.000000000000000e+00
p 96 -210 100 0 0 SPR2:0.000000000000000e+00
p 96 -210 100 0 0 SPR3:0
p 96 -210 100 0 0 HYTP:2
p 96 -210 100 0 0 MTOL:0
p 96 -210 100 0 0 HMAX:220
p 96 -210 100 0 0 HTIM:120
p 96 -210 100 0 0 HMIN:2
p 96 -210 100 0 0 HROC:0.0
p 96 -210 100 0 0 HDEV:0.0
p 96 -210 100 0 0 HLIM:0
p 96 -210 100 0 0 HCNT:0
p 96 -210 100 0 0 NELM:1
p 96 -210 100 0 0 NSEL:1
p 96 -210 100 0 0 LNSL:1
p 96 -210 100 0 0 NSL1:0
p 96 -210 100 0 0 NSL2:0
p 96 -210 100 0 0 NSL3:0
p 96 174 100 0 0 OROC:0.0000000e+00
p 96 110 100 0 0 PREC:5
p 96 142 100 0 0 LINR:NO CONVERSION
p 96 14 100 0 0 DRVH:220
p 96 -18 100 0 0 DRVL:0
p 96 78 100 0 0 EGUF:220
p 96 46 100 0 0 EGUL:0
p 320 -18 100 0 0 EGU:amps
p 320 366 100 0 0 HOPR:220
p 320 334 100 0 0 LOPR:0
p 96 -210 100 0 0 HOPB:940000
p 96 -210 100 0 0 LOPB:0
p 96 -210 100 0 0 HOPK:500
p 96 -210 100 0 0 LOPK:0
p 96 -210 100 0 0 HPDS:20.0
p 96 -210 100 0 0 LPDS:0.0
p 96 -210 100 0 0 HPBS:60000.0
p 96 -210 100 0 0 LPBS:0.0
p 96 -210 100 0 0 HPKS:20.0
p 96 -210 100 0 0 LPKS:0.0
p 320 270 100 0 0 HIHI:0.3
p 320 238 100 0 0 LOLO:0.0000000e+00
p 320 206 100 0 0 HIGH:0.03
p 320 174 100 0 0 LOW:0.0000000e+00
p 320 142 100 0 0 HHSV:MAJOR
p 320 46 100 0 0 LLSV:NO_ALARM
p 320 110 100 0 0 HSV:MINOR
p 320 78 100 0 0 LSV:NO_ALARM
p 96 -242 100 0 0 HYST:0.000000000000000e+00
p 96 -274 100 0 0 ADEL:0.05
p 96 -306 100 0 0 MDEL:0.03
p 96 -210 100 0 0 FMAP:
p 96 -82 100 0 0 SIOL:0.000000000000000e+00
p 96 -114 100 0 0 SIML:0.000000000000000e+00
p 96 -146 100 0 0 SIMS:NO_ALARM
p 96 -178 100 0 0 IVOA:Continue normally
p 96 -210 100 0 0 IVOV:0.000000000000000e+00
p 132 442 100 0 0 ASG:DEFAULT
p 96 -100 100 0 0 typ(FLNK):path
p 96 -120 100 0 0 def(FLNK):0.000000000000000e+00
p 96 -164 100 0 0 pproc(INRB):PP
[layers]
<symbol>
v 0 592 160
656 160
_
v 0 416 288
448 352
576 352
592 336
592 112
576 96
448 96
416 160
416 288
_
v 0 352 288
416 288
_
v 0 352 256
416 256
_
v 0 592 256
656 256
_
v 0 592 320
656 320
_
v 0 592 288
656 288
_
v 0 592 192
656 192
_
v 0 592 128
656 128
_
v 0 352 224
416 224
_
v 0 592 224
656 224
_
v 0 352 160
416 160
_
v 0 352 192
416 192
_
[comments]
RCS: $Name:  $ $Id: ebox.sym,v 0.0 2007/02/02 21:09:44 aaguayo Developmental $
