[schematic2]
uniq 166
[tools]
[detail]
w 962 107 100 0 n#161 ecalcouts.ecalcouts#165.FLNK 832 128 928 128 928 96 1056 96 egenSub.egenSub#111.SLNK
w 456 139 100 0 n#160 hwin.hwin#163.in 448 128 512 128 ecalcouts.ecalcouts#165.INPA
w 1458 587 100 0 n#155 egenSub.egenSub#111.OUTD 1344 576 1632 576 hwout.hwout#156.outp
w 1458 651 100 0 n#154 egenSub.egenSub#111.OUTC 1344 640 1632 640 hwout.hwout#157.outp
w 1458 715 100 0 n#153 egenSub.egenSub#111.OUTB 1344 704 1632 704 hwout.hwout#158.outp
w 1458 779 100 0 n#152 egenSub.egenSub#111.OUTA 1344 768 1632 768 hwout.hwout#159.outp
w 882 587 100 0 n#147 hwin.hwin#148.in 768 576 1056 576 egenSub.egenSub#111.INPD
w 882 651 100 0 n#146 hwin.hwin#149.in 768 640 1056 640 egenSub.egenSub#111.INPC
w 882 715 100 0 n#145 hwin.hwin#150.in 768 704 1056 704 egenSub.egenSub#111.INPB
w 882 779 100 0 n#144 hwin.hwin#151.in 768 768 1056 768 egenSub.egenSub#111.INPA
w 882 1707 100 0 n#127 hwin.hwin#125.in 768 1696 1056 1696 egenSub.egenSub#110.INPD
w 1458 1707 100 0 n#126 egenSub.egenSub#110.OUTD 1344 1696 1632 1696 hwout.hwout#124.outp
w 1458 1771 100 0 n#121 egenSub.egenSub#110.OUTC 1344 1760 1632 1760 hwout.hwout#123.outp
w 882 1771 100 0 n#120 hwin.hwin#122.in 768 1760 1056 1760 egenSub.egenSub#110.INPC
w 882 1835 100 0 n#119 hwin.hwin#117.in 768 1824 1056 1824 egenSub.egenSub#110.INPB
w 1458 1835 100 0 n#118 egenSub.egenSub#110.OUTB 1344 1824 1632 1824 hwout.hwout#116.outp
w 1458 1899 100 0 n#112 egenSub.egenSub#110.OUTA 1344 1888 1632 1888 hwout.hwout#88.outp
w 882 1899 100 0 n#113 hwin.hwin#114.in 768 1888 1056 1888 egenSub.egenSub#110.INPA
w 968 1227 100 0 n#94 ecalcouts.ecalcouts#164.FLNK 832 1248 928 1248 928 1216 1056 1216 egenSub.egenSub#110.SLNK
w 456 1259 100 0 n#93 hwin.hwin#52.in 448 1248 512 1248 ecalcouts.ecalcouts#164.INPA
s 2624 2064 100 1792 2001/02/20
s 2480 2064 100 1792 WNR
s 2240 2064 100 1792 Initial Layout
s 2016 2064 100 1792 A
s 2512 -240 100 1792 flamExposure.sch
s 2096 -272 100 1792 Author: WNR
s 2096 -240 100 1792 2001/02/20
s 2320 -240 100 1792 Rev: A
s 2432 -192 100 256 Flamingos Exposure Status
s 2096 -176 200 1792 FLAMINGOS
s 2240 -128 100 0 FLAMINGOS
[cell use]
use ecalcouts 512 1063 100 0 ecalcouts#164
xform 0 672 1184
p 584 1096 100 0 -1 CALC:$(CAR_BUSY)
p 1344 1646 100 0 0 OOPT:Transition To Non-zero
p 600 1296 100 0 1 SCAN:Passive
p 576 1064 100 0 -1 name:$(top)expStartTrigger
p 496 1256 75 0 -1 palrm(INPA):NMS
p 464 1256 75 0 -1 pproc(INPA):NPP
use ecalcouts 512 -57 100 0 ecalcouts#165
xform 0 672 64
p 584 -24 100 0 -1 CALC:$(CAR_IDLE)
p 1344 526 100 0 0 OOPT:Transition To Non-zero
p 600 176 100 0 1 SCAN:Passive
p 576 -56 100 0 -1 name:$(top)expEndTrigger
p 496 136 75 0 -1 palrm(INPA):NMS
p 464 136 75 0 -1 pproc(INPA):NPP
use hwin 576 1655 100 0 hwin#125
xform 0 672 1696
p 224 1696 100 0 -1 val(in):$(top)dc:obsStatusG.VALG
use hwin 576 1719 100 0 hwin#122
xform 0 672 1760
p 224 1760 100 0 -1 val(in):$(top)dc:obsStatusG.VALA
use hwin 576 1783 100 0 hwin#117
xform 0 672 1824
p 256 1824 100 0 -1 val(in):$(top)ec:tempMonG.VALE
use hwin 576 1847 100 0 hwin#114
xform 0 672 1888
p 272 1888 100 0 -1 val(in):$(top)ec:arrayG.VALA
use hwin 256 1207 100 0 hwin#52
xform 0 352 1248
p 16 1248 100 0 -1 val(in):$(top)observeC.VAL CPP
use hwin 576 535 100 0 hwin#148
xform 0 672 576
p 224 576 100 0 -1 val(in):$(top)dc:obsStatusG.VALG
use hwin 576 599 100 0 hwin#149
xform 0 672 640
p 224 640 100 0 -1 val(in):$(top)dc:obsStatusG.VALA
use hwin 576 663 100 0 hwin#150
xform 0 672 704
p 256 704 100 0 -1 val(in):$(top)ec:tempMonG.VALE
use hwin 576 727 100 0 hwin#151
xform 0 672 768
p 272 768 100 0 -1 val(in):$(top)ec:arrayG.VALA
use hwin 256 87 100 0 hwin#163
xform 0 352 128
p 16 128 100 0 -1 val(in):$(top)observeC.VAL CPP
use hwout 1632 1655 100 0 hwout#124
xform 0 1728 1696
p 1856 1696 100 0 -1 val(outp):$(sad)bgAdcStart.VAL PP NMS
use hwout 1632 1719 100 0 hwout#123
xform 0 1728 1760
p 1856 1760 100 0 -1 val(outp):$(sad)bgWellStart.VAL PP NMS
use hwout 1632 1783 100 0 hwout#116
xform 0 1728 1824
p 1856 1824 100 0 -1 val(outp):$(sad)tSWindowStart.VAL PP NMS
use hwout 1632 1847 100 0 hwout#88
xform 0 1728 1888
p 1856 1888 100 0 -1 val(outp):$(sad)tSDetectorStart.VAL PP NMS
use hwout 1632 535 100 0 hwout#156
xform 0 1728 576
p 1856 576 100 0 -1 val(outp):$(sad)bgAdcEnd.VAL PP NMS
use hwout 1632 599 100 0 hwout#157
xform 0 1728 640
p 1856 640 100 0 -1 val(outp):$(sad)bgWellEnd.VAL PP NMS
use hwout 1632 663 100 0 hwout#158
xform 0 1728 704
p 1856 704 100 0 -1 val(outp):$(sad)tSWindowEnd.VAL PP NMS
use hwout 1632 727 100 0 hwout#159
xform 0 1728 768
p 1856 768 100 0 -1 val(outp):$(sad)tSDetectorEnd.VAL PP NMS
use changeBar 1984 2023 100 0 changeBar#115
xform 0 2336 2064
use egenSub 1056 7 100 0 egenSub#111
xform 0 1200 432
p 833 -219 100 0 0 FTA:STRING
p 833 -219 100 0 0 FTB:STRING
p 833 -251 100 0 0 FTC:STRING
p 833 -283 100 0 0 FTD:STRING
p 833 -219 100 0 0 FTVA:STRING
p 833 -219 100 0 0 FTVB:STRING
p 833 -251 100 0 0 FTVC:STRING
p 833 -283 100 0 0 FTVD:STRING
p 1120 -32 100 0 1 INAM:flamIsNullGInit
p 1120 -64 100 0 1 SNAM:flamIsCopyGProcess
p 1120 0 100 0 1 name:$(top)expEndSadUpdate
p 1344 778 75 0 -1 pproc(OUTA):PP
p 1344 714 75 0 -1 pproc(OUTB):PP
p 1344 650 75 0 -1 pproc(OUTC):PP
p 1344 586 75 0 -1 pproc(OUTD):PP
use egenSub 1056 1127 100 0 egenSub#110
xform 0 1200 1552
p 833 901 100 0 0 FTA:STRING
p 833 901 100 0 0 FTB:STRING
p 833 869 100 0 0 FTC:STRING
p 833 837 100 0 0 FTD:STRING
p 833 901 100 0 0 FTVA:STRING
p 833 901 100 0 0 FTVB:STRING
p 833 869 100 0 0 FTVC:STRING
p 833 837 100 0 0 FTVD:STRING
p 1120 1088 100 0 1 INAM:flamIsNullGInit
p 1120 1056 100 0 1 SNAM:flamIsCopyGProcess
p 1120 1120 100 0 1 name:$(top)expStartSadUpdate
p 1344 1898 75 0 -1 pproc(OUTA):PP
p 1344 1834 75 0 -1 pproc(OUTB):PP
p 1344 1770 75 0 -1 pproc(OUTC):PP
p 1344 1706 75 0 -1 pproc(OUTD):PP
use bc200 -576 -408 -100 0 frame
xform 0 1104 896
use rb200abc 1984 -313 100 0 rb200abc#0
xform 0 2336 -192
[comments]
RCS: $Name:  $ $Id: flamExposure.sch,v 0.0 2007/02/02 21:09:44 aaguayo Developmental $
