[symbol2]
bbox 32 32 320 288
uniq 46
[tools]
[attributes]
[layers]
<symbol>
l 100 0 0 80 155 flamSadDcStatus
r 0 32 32 320 288
[comments]
RCS: $Name:  $ $Id: flamSadDcStatus.sym,v 0.0 2007/02/02 21:09:44 aaguayo Developmental $
