[schematic2]
uniq 1317
[tools]
[detail]
w 4684 2123 100 0 n#1316 flamLinkEnable.flamLinkEnable#861.ENABLE 4160 64 4096 64 4096 -160 5568 -160 5568 2112 3872 2112 estringouts.estringouts#839.FLNK
w 4660 747 100 0 n#1315 flamLinkEnable.flamLinkEnable#861.FLINK 4480 32 4592 32 4592 736 4800 736 egenSubFLAM.egenSubFLAM#1212.SLNK
w 3756 107 100 0 n#1314 efanouts.efanouts#863.LNK2 3584 96 4000 96 4000 0 4160 0 flamLinkEnable.flamLinkEnable#861.SLINK
w 3844 1307 100 0 n#1313 efanouts.efanouts#863.LNK1 3584 128 3744 128 3744 1296 4016 1296 estringouts.estringouts#843.SLNK
w 3252 59 100 0 n#1312 efanouts.efanouts#863.SLNK 3344 48 3232 48 3232 224 3136 224 ecad20.ecad20#1170.STLK
w 4204 2091 100 0 n#1311 estringouts.estringouts#839.OUT 3872 2080 4608 2080 4608 1440 4800 1440 egenSubFLAM.egenSubFLAM#1212.A
w 3644 1611 100 0 n#1310 ecad20.ecad20#1170.VALD 3136 1472 3328 1472 3328 1600 4032 1600 estringouts.estringouts#844.DOL
w 4620 1355 100 0 n#1308 estringouts.estringouts#844.OUT 4288 1552 4512 1552 4512 1344 4800 1344 egenSubFLAM.egenSubFLAM#1212.D
w 3860 1547 100 0 n#1306 estringouts.estringouts#1305.FLNK 3808 1536 3984 1536 3984 1568 4032 1568 estringouts.estringouts#844.SLNK
w 4108 1419 100 0 n#1201 estringouts.estringouts#1305.OUT 3808 1504 3808 1408 4480 1408 4480 1312 4800 1312 egenSubFLAM.egenSubFLAM#1212.E
w 4204 1699 100 0 n#1199 estringouts.estringouts#841.OUT 3872 1792 3936 1792 3936 1696 4544 1696 4544 1376 4800 1376 egenSubFLAM.egenSubFLAM#1212.C
w 4572 1627 100 0 n#1198 estringouts.estringouts#840.OUT 4256 1856 4576 1856 4576 1408 4800 1408 egenSubFLAM.egenSubFLAM#1212.B
w 3228 1891 100 0 n#1190 ecad20.ecad20#1170.VALA 3136 1664 3232 1664 3232 2128 3616 2128 estringouts.estringouts#839.DOL
w 3596 1907 100 0 n#1189 ecad20.ecad20#1170.VALB 3136 1600 3264 1600 3264 1904 4000 1904 estringouts.estringouts#840.DOL
w 3420 1843 100 0 n#1188 ecad20.ecad20#1170.VALC 3136 1536 3296 1536 3296 1840 3616 1840 estringouts.estringouts#841.DOL
w 3212 1419 100 0 n#1186 ecad20.ecad20#1170.VALE 3136 1408 3360 1408 3360 1552 3552 1552 estringouts.estringouts#1305.DOL
w 3436 1355 100 0 n#1185 estringouts.estringouts#843.DOL 4016 1328 3808 1328 3808 1344 3136 1344 ecad20.ecad20#1170.VALF
w 4500 1291 100 0 n#1184 estringouts.estringouts#843.OUT 4272 1280 4800 1280 egenSubFLAM.egenSubFLAM#1212.F
w 3916 1883 100 0 n#1183 estringouts.estringouts#841.FLNK 3872 1824 3904 1824 3904 1872 4000 1872 estringouts.estringouts#840.SLNK
w 3868 1963 100 0 n#1182 estringouts.estringouts#840.FLNK 4256 1888 4288 1888 4288 1952 3520 1952 3520 2096 3616 2096 estringouts.estringouts#839.SLNK
w 3916 1675 100 0 n#1180 estringouts.estringouts#844.FLNK 4288 1584 4384 1584 4384 1664 3520 1664 3520 1808 3616 1808 estringouts.estringouts#841.SLNK
w 3868 1387 100 0 n#1179 estringouts.estringouts#843.FLNK 4272 1312 4288 1312 4288 1376 3520 1376 3520 1520 3552 1520 estringouts.estringouts#1305.SLNK
w 4994 1539 100 0 n#341 egenSubFLAM.egenSubFLAM#1212.OUTE 5088 1312 5376 1312 5376 1536 4672 1536 4672 1696 4752 1696 hwout.hwout#338.outp
w 4962 1507 100 0 n#340 egenSubFLAM.egenSubFLAM#1212.OUTD 5088 1344 5344 1344 5344 1504 4640 1504 4640 1760 4752 1760 hwout.hwout#337.outp
s 5168 1248 120 0 dither
s 5161 1098 100 0 Exposure time
s 5160 1127 100 0 Total time
s 5163 1162 100 0 obs_mode
s 5164 1194 100 0 Frame Count
s 2659 1670 120 0 command
s 2675 1594 120 0 obs ID
s 2640 1520 120 0 DHS write
s 5184 -416 220 0 mce4_cont-18.sch 12/10/2001 4:15 PM EST
s 2640 1360 120 0 sim mode
s 5161 1387 100 0 command
s 5161 1350 100 0 obs ID
s 5163 1317 100 0 DHS write
s 5161 1451 100 0 sim mode
s 5168 1280 100 0 local archive
s 5161 1419 100 0 socket number
s 2656 1408 120 0 dither
s 2656 1472 120 0 archive
[cell use]
use estringouts 3616 2023 100 0 estringouts#839
xform 0 3744 2096
p 3648 1984 100 0 1 OMSL:closed_loop
p 3648 2016 100 768 -1 name:$(dc)datumcommW
use estringouts 4000 1799 100 0 estringouts#840
xform 0 4128 1872
p 4016 1760 100 0 1 OMSL:closed_loop
p 4016 1792 100 768 -1 name:$(dc)datumobsIDW
use estringouts 3616 1735 100 0 estringouts#841
xform 0 3744 1808
p 3632 1696 100 0 1 OMSL:closed_loop
p 3632 1728 100 768 -1 name:$(dc)datumDHSwrtW
use estringouts 4016 1223 100 0 estringouts#843
xform 0 4144 1296
p 4032 1184 100 0 1 OMSL:closed_loop
p 4032 1216 100 768 -1 name:$(dc)datumSmModeW
use estringouts 4032 1495 100 0 estringouts#844
xform 0 4160 1568
p 4048 1456 100 0 1 OMSL:closed_loop
p 4048 1488 100 768 -1 name:$(dc)datumlclArchvW
use estringouts 3552 1447 100 0 estringouts#1305
xform 0 3680 1520
p 3568 1408 100 0 1 OMSL:closed_loop
p 3568 1440 100 768 -1 name:$(dc)datumditherW
use hwout 4752 1655 100 0 hwout#338
xform 0 4848 1696
p 4955 1686 100 0 -1 val(outp):$(sad)dataMode.VAL PP NMS
use hwout 4752 1719 100 0 hwout#337
xform 0 4848 1760
p 4955 1753 100 0 -1 val(outp):$(sad)obsID.VAL PP NMS
use egenSubFLAM 4800 647 100 0 egenSubFLAM#1212
xform 0 4944 1072
p 4577 421 100 0 0 FTA:STRING
p 4577 421 100 0 0 FTB:STRING
p 4577 389 100 0 0 FTC:STRING
p 4577 357 100 0 0 FTD:STRING
p 4577 325 100 0 0 FTE:STRING
p 4577 261 100 0 0 FTF:STRING
p 4577 261 100 0 0 FTG:STRING
p 4577 229 100 0 0 FTH:STRING
p 4577 197 100 0 0 FTI:STRING
p 4577 165 100 0 0 FTJ:STRING
p 4577 165 100 0 0 FTK:STRING
p 4577 165 100 0 0 FTL:STRING
p 4577 165 100 0 0 FTM:STRING
p 4577 165 100 0 0 FTN:STRING
p 4577 165 100 0 0 FTO:STRING
p 4577 165 100 0 0 FTP:STRING
p 4577 165 100 0 0 FTQ:STRING
p 4577 165 100 0 0 FTR:STRING
p 4577 165 100 0 0 FTS:STRING
p 4577 165 100 0 0 FTT:STRING
p 4577 165 100 0 0 FTU:STRING
p 4577 421 100 0 0 FTVA:LONG
p 4577 421 100 0 0 FTVB:LONG
p 4577 389 100 0 0 FTVC:STRING
p 4577 357 100 0 0 FTVD:STRING
p 4577 325 100 0 0 FTVE:STRING
p 4577 261 100 0 0 FTVF:STRING
p 4577 261 100 0 0 FTVG:STRING
p 4577 229 100 0 0 FTVH:STRING
p 4577 197 100 0 0 FTVI:STRING
p 4577 165 100 0 0 FTVJ:STRING
p 4577 165 100 0 0 FTVK:STRING
p 4577 165 100 0 0 FTVL:STRING
p 4577 165 100 0 0 FTVM:STRING
p 4577 165 100 0 0 FTVN:STRING
p 4577 165 100 0 0 FTVO:STRING
p 4577 165 100 0 0 FTVP:STRING
p 4577 165 100 0 0 FTVQ:STRING
p 4577 165 100 0 0 FTVR:STRING
p 4577 165 100 0 0 FTVS:STRING
p 4577 165 100 0 0 FTVT:STRING
p 4577 165 100 0 0 FTVU:STRING
p 4512 1054 100 0 0 INAM:ufdatumControlGinit
p 4512 1022 100 0 0 SNAM:ufdatumControlGproc
p 4912 640 100 1024 -1 name:$(dc)datumControlG
use ecad20 2816 135 100 0 ecad20#1170
xform 0 2976 1024
p 2912 1152 100 0 0 FTVO:LONG
p 2912 736 100 0 0 SNAM:dcDatumCommand
p 2928 128 100 1024 -1 name:$(dc)datum
p 2784 1568 75 1280 -1 pproc(INPB):NPP
p 3136 234 75 0 -1 pproc(STLK):PP
use efanouts 3344 -89 100 0 efanouts#863
xform 0 3464 64
p 3456 -96 100 1024 -1 name:$(dc)datumFanout
use flamLinkEnable 4160 -89 100 0 flamLinkEnable#861
xform 0 4320 32
p 4160 -96 100 0 1 setSystem:system $(dc)datum
[comments]
RCS: "$Name:  $ $Id: flamDcDatum.sch,v 0.0 2007/02/02 21:09:44 aaguayo Developmental $"
