[schematic2]
uniq 25
[tools]
[detail]
w -120 331 100 0 n#24 hwin.hwin#23.in -192 320 0 320 ecad2.ecad2#2.INPB
w 472 1643 100 0 n#22 ecad2.ecad2#6.VALB 352 1632 640 1632 elongouts.elongouts#10.SDIS
w 424 363 100 0 n#21 egenSubC.egenSubC#4.INPB 736 800 576 800 576 352 320 352 ecad2.ecad2#2.VALB
w 408 395 100 0 n#18 ecad2.ecad2#2.OUTA 320 384 544 384 544 832 736 832 egenSubC.egenSubC#4.A
w 504 139 100 0 n#17 ecad2.ecad2#2.STLK 320 128 736 128 egenSubC.egenSubC#4.SLNK
w 472 1675 100 0 n#16 ecad2.ecad2#6.OUTA 352 1664 640 1664 elongouts.elongouts#10.SLNK
s 2144 992 100 0 number of records
s 2144 1024 100 0 SIRNAME STEPS
s 2144 1056 100 0 SIRNAME STEPS
s 2144 1088 100 0 SIRNAME STEPS
s 2144 1120 100 0 SIRNAME STEPS
s 2144 1152 100 0 SIRNAME STEPS
s 2144 1184 100 0 SIRNAME STEPS
s 2144 1216 100 0 SIRNAME STEPS
s 2144 1248 100 0 SIRNAME STEPS
s 2144 1280 100 0 SIRNAME STEPS
s 2144 1312 100 0 SIRNAME STEPS
s 2144 1344 100 0 SIRNAME STEPS
s 2144 1376 100 0 SIRNAME STEPS
s 2144 1408 100 0 SIRNAME STEPS
s 2144 1440 100 0 SIRNAME STEPS
s 2144 1472 100 0 SIRNAME STEPS
s 2144 1504 100 0 SIRNAME STEPS
s 2144 1536 100 0 SIRNAME STEPS
s 2144 1568 100 0 SIRNAME STEPS
s 2144 1600 100 0 SIRNAME STEPS
s 2144 1632 100 0 SIRNAME STEPS
s -192 416 100 0 maskName
s 2624 2032 100 1792 2006/09/18
s 2480 2032 100 1792 WNR
s 2240 2032 100 1792 Initial Layout
s 2016 2032 100 1792 A
s 2512 -240 100 1792 flamBarcode.sch
s 2096 -272 100 1792 Author: WNR
s 2096 -240 100 1792 2006/09/18
s 2320 -240 100 1792 Rev: A
s 2432 -192 100 256 Barcode Reader Control
s 2096 -176 200 1792 FLAMINGOS
s 2240 -128 100 0 FLAMINGOS
[cell use]
use hwin -384 279 100 0 hwin#23
xform 0 -288 320
p -384 272 100 0 -1 val(in):$(sad)Simulation
use egenSubC 1824 839 100 0 egenSubC#5
xform 0 1968 1264
p 1601 613 100 0 0 FTVA:STRING
p 1601 613 100 0 0 FTVB:STRING
p 1601 581 100 0 0 FTVC:STRING
p 1601 549 100 0 0 FTVD:STRING
p 1601 517 100 0 0 FTVE:STRING
p 1601 453 100 0 0 FTVF:STRING
p 1601 453 100 0 0 FTVG:STRING
p 1601 421 100 0 0 FTVH:STRING
p 1601 389 100 0 0 FTVI:STRING
p 1601 357 100 0 0 FTVJ:STRING
p 1601 357 100 0 0 FTVK:STRING
p 1601 357 100 0 0 FTVL:STRING
p 1601 357 100 0 0 FTVM:STRING
p 1601 357 100 0 0 FTVN:STRING
p 1601 357 100 0 0 FTVO:STRING
p 1601 357 100 0 0 FTVP:STRING
p 1601 357 100 0 0 FTVQ:STRING
p 1601 357 100 0 0 FTVR:STRING
p 1601 357 100 0 0 FTVS:STRING
p 1601 357 100 0 0 FTVT:STRING
p 1601 357 100 0 0 FTVU:LONG
p 1856 800 100 0 1 INAM:mosMaskNamesGInit
p 1856 768 100 0 1 SNAM:mosMaskNamesGProcess
p 1856 832 100 0 1 name:$(ec)mosMaskNamesG
use egenSubC 736 39 100 0 egenSubC#4
xform 0 880 464
p 513 -187 100 0 0 FTA:STRING
p 513 -187 100 0 0 FTB:LONG
p 513 -219 100 0 0 FTC:LONG
p 513 -187 100 0 0 FTVA:STRING
p 513 -187 100 0 0 FTVB:STRING
p 513 -219 100 0 0 FTVC:STRING
p 513 -251 100 0 0 FTVD:STRING
p 513 -283 100 0 0 FTVE:STRING
p 513 -347 100 0 0 FTVF:STRING
p 513 -347 100 0 0 FTVG:STRING
p 513 -379 100 0 0 FTVH:STRING
p 513 -411 100 0 0 FTVI:STRING
p 513 -443 100 0 0 FTVJ:STRING
p 513 -443 100 0 0 FTVK:STRING
p 513 -443 100 0 0 FTVL:STRING
p 513 -443 100 0 0 FTVM:STRING
p 513 -443 100 0 0 FTVN:STRING
p 513 -443 100 0 0 FTVO:STRING
p 513 -443 100 0 0 FTVP:STRING
p 513 -443 100 0 0 FTVQ:STRING
p 513 -443 100 0 0 FTVR:STRING
p 513 -443 100 0 0 FTVS:STRING
p 513 -443 100 0 0 FTVT:STRING
p 513 -443 100 0 0 FTVU:LONG
p 768 0 100 0 1 INAM:readBarcodeGInit
p 768 -32 100 0 1 SNAM:readBarcodeGProcess
p 768 32 100 0 1 name:$(ec)readBcG
use elongouts 640 1575 100 0 elongouts#10
xform 0 768 1664
p 672 1536 100 0 1 OMSL:supervisory
p 672 1568 100 0 1 name:$(ec)startScan
use ecars 1184 1639 100 0 ecars#7
xform 0 1344 1808
p 1216 1632 100 0 1 name:$(ec)scanMasksC
use ecars 1344 295 100 0 ecars#3
xform 0 1504 464
p 1376 288 100 0 1 name:$(ec)readBcC
use ecad2 32 1319 100 0 ecad2#6
xform 0 192 1632
p 128 1632 100 0 0 FTVA:LONG
p 128 1600 100 0 0 FTVB:LONG
p 64 1280 100 0 1 SNAM:scanMasksCommand
p 64 1312 100 0 1 name:$(ec)scanMasks
p 368 1664 75 1024 -1 pproc(OUTA):PP
use ecad2 0 39 100 0 ecad2#2
xform 0 160 352
p 96 320 100 0 0 FTVB:LONG
p 32 0 100 0 1 SNAM:readBarcodeCommand
p 32 32 100 0 1 name:$(ec)readBc
use tb200abc 1984 1991 100 0 tb200abc#1
xform 0 2336 2048
use bc200 -576 -408 -100 0 frame
xform 0 1104 896
use rb200abc 1984 -313 100 0 rb200abc#0
xform 0 2336 -192
[comments]
RCS: $Name:  $ $Id: flamBarcode.sch,v 0.0 2007/02/02 21:09:44 aaguayo Developmental $
