[symbol2]
bbox 32 32 320 352
port 48 192 100 0 START symbol 1 32 192 0
port 208 224 100 0 CAR_IMSS symbol 2 320 224 0
port 208 288 100 0 CAR_IVAL symbol 2 320 288 0
port 224 96 100 0 FAILED symbol 2 320 96 0
port 256 160 100 0 DONE symbol 2 320 160 0
uniq 190
[tools]
[attributes]
p 32 -32 100 0 1 setCommand:cmd xxx
p 32 0 100 0 1 setSystem:sys dc
[layers]
<symbol>
l 100 0 0 80 48 flamSubSysCommand
r 0 32 32 320 352
[comments]
RCS: $Name:  $ $Id: flamSubSysCommand.sym,v 0.0 2004/10/04 18:05:31 hon Developmental $
