[symbol2]
bbox -32 128 224 320
port -16 224 100 0 RESET symbol 1 -32 224 0
port 128 224 100 0 RUNNING symbol 2 224 224 0
uniq 141
[tools]
[attributes]
[layers]
<symbol>
l 100 0 0 32 144 flamOneShot
r 0 -32 128 224 320
[comments]
RCS: $Name:  $ $Id: flamOneShot.sym,v 0.0 2004/10/04 18:05:31 hon Developmental $
