[schematic2]
uniq 97
[tools]
[detail]
w 56 1035 100 0 n#96 hwin.hwin#95.in 32 1024 128 1024 ecad2.ecad2#48.INPB
w 1752 651 100 0 n#94 flamSubSysCommand.flamSubSysCommand#57.CAR_IMSS 1632 640 1920 640 ecars.ecars#53.IMSS
w 1752 715 100 0 n#93 flamSubSysCommand.flamSubSysCommand#57.CAR_IVAL 1632 704 1920 704 ecars.ecars#53.IVAL
w 144 1451 -100 0 c#89 ecad2.ecad2#48.DIR 128 1312 64 1312 64 1440 272 1440 272 1760 160 1760 inhier.DIR.P
w 112 1483 -100 0 c#90 ecad2.ecad2#48.ICID 128 1280 32 1280 32 1472 240 1472 240 1632 160 1632 inhier.ICID.P
w 384 1451 -100 0 c#91 ecad2.ecad2#48.VAL 448 1312 512 1312 512 1440 304 1440 304 1760 448 1760 outhier.VAL.p
w 416 1483 -100 0 c#92 ecad2.ecad2#48.MESS 448 1280 544 1280 544 1472 336 1472 336 1632 448 1632 outhier.MESS.p
w 1176 619 100 0 n#76 efanouts.efanouts#13.LNK2 864 880 1056 880 1056 608 1344 608 flamSubSysCommand.flamSubSysCommand#57.START
w 1144 1243 100 0 n#74 efanouts.efanouts#13.LNK1 864 912 1056 912 1056 1232 1280 1232 estringouts.estringouts#69.SLNK
w 1528 1227 100 0 n#64 estringouts.estringouts#69.OUT 1536 1216 1568 1216 hwout.hwout#65.outp
w 512 843 100 0 n#49 ecad2.ecad2#48.STLK 448 832 624 832 efanouts.efanouts#13.SLNK
s 2624 2032 100 1792 2000/12/05
s 2480 2032 100 1792 WNR
s 2240 2032 100 1792 Initial Layout
s 2016 2032 100 1792 A
s 2512 -240 100 1792 flamAbort.sch
s 2096 -272 100 1792 Author: WNR
s 2096 -240 100 1792 2000/12/05
s 2320 -240 100 1792 Rev: A
s 2432 -192 100 256 Flamingos abort Command
s 2096 -176 200 1792 FLAMINGOS
s 2240 -128 100 0 FLAMINGOS
[cell use]
use hwin -160 983 100 0 hwin#95
xform 0 -64 1024
p -368 1024 100 0 -1 val(in):$(top)state.VAL
use outhier 464 1760 100 0 VAL
xform 0 432 1760
use outhier 464 1632 100 0 MESS
xform 0 432 1632
use inhier 96 1760 100 0 DIR
xform 0 160 1760
use inhier 80 1632 100 0 ICID
xform 0 160 1632
use estringouts 1280 1159 100 0 estringouts#69
xform 0 1408 1232
p 1344 1120 100 0 0 OMSL:supervisory
p 1344 1120 100 0 1 VAL:ABORT
p 1472 1152 100 1024 1 name:$(top)abortDcCmd
use hwout 1568 1175 100 0 hwout#65
xform 0 1664 1216
p 1792 1216 100 0 -1 val(outp):$(top)dc:acqControl.A
use flamSubSysCommand 1344 423 100 0 flamSubSysCommand#57
xform 0 1488 608
p 1344 384 100 0 1 setCommand:cmd abort
p 1344 416 100 0 1 setSystem:sys dc
use ecars 1920 423 100 0 ecars#53
xform 0 2080 592
p 2080 416 100 1024 1 name:$(top)abortC
use ecad2 128 743 100 0 ecad2#48
xform 0 288 1056
p 192 704 100 0 1 INAM:flamIsNullInit
p 192 656 100 0 1 SNAM:flamIsAbortProcess
p 288 736 100 1024 1 name:$(top)abort
p 464 832 75 1024 -1 pproc(STLK):PP
use efanouts 624 695 100 0 efanouts#13
xform 0 744 848
p 768 688 100 1024 1 name:$(top)abortFanout
use tb200abc 1984 1991 100 0 tb200abc#1
xform 0 2336 2048
use bc200 -576 -408 -100 0 frame
xform 0 1104 896
use rb200abc 1984 -313 100 0 rb200abc#0
xform 0 2336 -192
[comments]
RCS: $Name:  $ $Id: flamAbort.sch,v 0.0 2004/10/04 18:05:31 hon Developmental $
