[symbol2]
bbox 32 32 320 288
uniq 27
[tools]
[attributes]
[layers]
<symbol>
r 0 32 32 320 288
l 100 0 0 74 155 trecsSadObsConfig
[comments]
RCS: $Name:  $ $Id: trecsSadObsConfig.sym,v 0.1 2003/02/15 03:02:14 trecs beta $
