[symbol2]
bbox -32 128 224 320
port 128 224 100 0 RUNNING symbol 2 224 224 0
port -16 224 100 0 RESET symbol 1 -32 224 0
uniq 141
[tools]
[attributes]
[layers]
<symbol>
l 100 0 0 32 144 trecsOneShot
r 0 -32 128 224 320
[comments]
RCS: $Name:  $ $Id: trecsOneShot.sym,v 0.0 2003/04/25 15:21:15 hon Developmental $
