$Name:  $ $Id: ufbin.lis,v 0.1 2002/06/20 20:03:26 hon beta $
tcs2m*
tcs4m*
ufacq*
ufacqframed*
ufalive*
ufannex*
ufbell*
ufcaget*
ufcaput*
ufcaputarr*
ufdc*
ufdhsget*
ufdhsput*
ufdhsput1*
ufedtd*
ufenvlog*
ufexc*
uffits*
uffrmstatus*
ufg354vacd*
ufgatir*
ufgls218d*
ufgls340d*
ufgmce4d*
ufgmotord*
ufgtake*
ufgtrecsd*
ufjei -> ufstartjei*
ufls208d*
uflsc*
ufmce4d*
ufmotor*
ufmotord*
ufpsem*
ufqlook*
ufsim -> ufsimagents*
ufsimagents*
ufsleep*
ufstart -> ufstartagents*
ufstartagents*
ufstartjei*
ufstop -> ufstopagents*
ufstopagents*
uftty*
ufttya -> uftty*
ufttyb -> uftty*
ufvac*
ufvacuumd*
