[symbol2]
bbox 32 32 288 704
port 48 576 100 0 CLID symbol 1 32 576 0
port 48 608 100 0 DIR symbol 1 32 608 0
port 224 576 100 0 MESS symbol 2 288 576 0
port 240 608 100 0 VAL symbol 2 288 608 0
uniq 100
[tools]
[attributes]
[layers]
<symbol>
l 100 0 0 48 352 trecsIsObserveCmds
r 0 32 32 288 704
[comments]
RCS: $Name:  $ $Id: trecsIsObserveCmds.sym,v 0.1 2003/02/15 03:02:14 trecs beta $
