[symbol2]
bbox 32 32 224 224
uniq 1174
[tools]
[attributes]
[layers]
<symbol>
l 100 0 0 50 123 flamDcDatum
r 0 32 32 224 224
[comments]
RCS: "$Name:  $ $Id: flamDcDatum.sym,v 0.0 2006/06/21 15:20:21 hon Exp $"
