[symbol2]
bbox 32 32 288 704
uniq 34
[tools]
[attributes]
[layers]
<symbol>
l 100 0 0 100 363 flamControl
r 0 32 32 288 704
[comments]
RCS: $Name:  $ $Id: flamControl.sym,v 1.1 2006/09/14 22:27:44 gemvx Exp $
