[symbol2]
bbox 32 32 320 288
uniq 46
[tools]
[attributes]
[layers]
<symbol>
l 100 0 0 50 155 flamSadCcEngineering
r 0 32 32 320 288
[comments]
RCS: $Name:  $ $Id: flamSadCcEngineering.sym,v 1.1 2006/09/14 22:27:58 gemvx Exp $
