[symbol2]
bbox 32 32 480 320
uniq 300
[tools]
[attributes]
[layers]
<symbol>
r 0 32 32 480 320
l 100 0 0 196 171 trecsEcTop
[comments]
RCS: $Name:  $ $Id: trecsEcTop.sym,v 0.0 2003/04/25 15:21:15 hon Developmental $
