[symbol2]
bbox -64 -128 256 448
port -25 -55 100 1792 SDIS symbol 1 -64 -64 0
port 224 432 100 1792 OUT symbol 2 256 416 0
port 223 -87 100 1792 FLNK symbol 2 256 -96 0
port -25 425 100 1792 DOL symbol 1 -64 416 0
port -26 -86 100 1792 SLNK symbol 1 -64 -96 0
port -25 361 100 1792 DIR symbol 1 -64 352 0
port -25 329 100 1792 MODE symbol 1 -64 320 0
port -25 297 100 1792 VALS symbol 1 -64 288 0
port -25 265 100 1792 VELO symbol 1 -64 256 0
port -25 201 100 1792 PSTA symbol 1 -64 192 0
port -25 169 100 1792 BSTA symbol 1 -64 160 0
port -25 73 100 1792 SIML symbol 1 -64 64 0
port -25 9 100 1792 DBGL symbol 1 -64 0 0
port 224 336 100 1792 BSYL symbol 2 256 320 0
port 224 304 100 1792 MSGL symbol 2 256 288 0
port 224 368 100 1792 ACK symbol 2 256 352 0
port 224 176 100 1792 BRKL symbol 2 256 160 0
port 224 208 100 1792 PWRL symbol 2 256 192 0
port 224 112 100 1792 MPOS symbol 2 256 96 0
port 224 272 100 1792 VAL symbol 2 256 256 0
port 224 80 100 1792 MIP symbol 2 256 64 0
port 224 48 100 1792 LSWA symbol 2 256 32 0
port -25 137 100 1792 FLT symbol 1 -64 128 0
port -25 41 100 1792 SIMM symbol 1 -64 32 0
port -25 -23 100 1792 DBUG symbol 1 -64 -32 0
port -48 228 100 0 IOFS symbol 1 -64 224 0
uniq 36
[tools]
[attributes]
p 128 -384 100 0 0 ACCL:0.0000000e+00
p 480 32 100 0 0 ADEL:0
p 0 -480 100 0 1 BLCO:0
p 0 -288 100 0 1 BTMO:10
p 15 443 100 0 0 DESC:Device control record
p -448 -112 100 0 0 DIR:STOP
p -256 144 100 0 0 DISS:NO_ALARM
p 16 -64 80 768 1 DISV:1
p 0 -160 100 0 1 DTYP:DEV CTL OMS 58
p 0 -416 100 0 0 EDBD:1
p 0 -288 100 0 0 EGU:units
p 0 -384 100 0 0 ERES:0
p -256 304 100 0 0 EVNT:0
p 48 144 100 0 0 FIVL:0.5
p 0 176 100 0 0 HHSV:NO_ALARM
p 0 240 100 0 0 HIGH:0.0000000e+00
p 0 304 100 0 0 HIHI:0.0000000e+00
p 0 48 100 0 0 HLSV:NO_ALARM
p 0 -448 100 0 1 HPO:0
p 0 144 100 0 0 HSV:NO_ALARM
p -428 -132 100 0 0 IALG:0
p 0 80 100 0 0 LLSV:NO_ALARM
p 0 272 100 0 0 LOLO:0.0000000e+00
p 0 208 100 0 0 LOW:0.0000000e+00
p 0 112 100 0 0 LSV:NO_ALARM
p 0 -352 100 0 0 MDBD:0
p 336 48 100 0 0 MDEL:0
p 0 16 100 0 0 MODE:MOVE
p 0 -320 100 0 0 MRES:200
p 32 16 100 0 0 MRND:0.0001
p 0 96 100 0 0 OMSL:supervisory
p -256 336 100 0 0 PHAS:0
p 128 -320 100 0 0 PHLM:1.00e+04
p -256 272 100 0 0 PINI:NO
p 128 -352 100 0 0 PLLM:-1.00e+02
p 96 -112 100 256 1 PREC:4
p -256 208 100 0 0 PRIO:LOW
p 0 -320 100 0 1 PTMO:10
p 0 464 100 0 1 PV:$(top)$(dev)
p 0 -192 100 0 1 SCAN:Passive
p 0 -416 100 0 1 SIMM:$(devSim)
p 0 -224 100 0 1 TDIR:./data
p 0 -256 100 0 1 TFIL:$(dev).lut
p 112 224 100 256 -1 Type:deviceControl
p 0 -384 100 0 1 UAPB:YES
p 112 -320 100 0 0 UBSB:NO
p 112 -288 100 0 0 UEIP:NO
p 0 -352 100 0 1 UPSB:YES
p 128 -416 100 0 0 VBAS:0.00000000e+00
p 256 208 100 0 0 VELO:1.00000000e+00
p 128 -448 100 0 0 VHLM:1.00e+02
p 128 -480 100 0 0 VLLM:0.00e+00
p 352 160 80 768 0 def(BRKL):0.000000000000000e+00
p 352 320 80 768 0 def(BSYL):0.000000000000000e+00
p -224 0 80 1280 0 def(DBGL):0.000000000000000e+00
p -160 416 80 1280 0 def(DOL):0.000000000000000e+00
p 352 -96 80 768 0 def(FLNK):0.000000000000000e+00
p 352 288 80 768 0 def(MSGL):0.000000000000000e+00
p 352 416 80 768 0 def(OUT):0.000000000000e+00
p 352 192 80 768 0 def(PWRL):0.000000000000000e+00
p -160 0 80 1280 0 def(SDIS):0.000000000000000e+00
p -160 64 80 1280 0 def(SIML):0.000000000000000e+00
p 16 130 100 1024 0 name:$(top)$(I)
p 272 160 80 768 -1 palrm(BRKL):NMS
p 272 320 80 768 -1 palrm(BSYL):NMS
p -80 0 80 1280 -1 palrm(DBGL):NMS
p -80 416 80 1280 -1 palrm(DOL):NMS
p 272 288 80 768 -1 palrm(MSGL):NMS
p 272 192 80 768 -1 palrm(PWRL):NMS
p -80 0 80 1280 -1 palrm(SDIS):NMS
p -80 64 80 1280 -1 palrm(SIML):NMS
p 320 160 80 768 -1 pproc(BRKL):PP
p 320 320 80 768 -1 pproc(BSYL):NPP
p -112 0 80 1280 -1 pproc(DBGL):NPP
p -112 416 80 1280 -1 pproc(DOL):NPP
p 320 288 80 768 -1 pproc(MSGL):NPP
p 320 192 80 768 -1 pproc(PWRL):PP
p -112 0 80 1280 -1 pproc(SDIS):NPP
p -112 64 80 1280 -1 pproc(SIML):NPP
p 280 452 100 0 0 primitive:edevctlm
p -468 84 100 0 0 typ(BRKL):path
p 544 112 100 0 0 typ(BSYL):path
p -160 0 100 512 0 typ(DBGL):path
p 96 -130 100 0 0 typ(DOL):path
p 352 -96 100 0 0 typ(FLNK):path
p 604 52 100 0 0 typ(MSGL):path
p 96 -322 100 0 0 typ(OUT):path
p -488 104 100 0 0 typ(PWRL):path
p 96 -226 100 0 0 typ(SDIS):path
p -176 64 100 512 0 typ(SIML):path
[layers]
<symbol>
r 0 0 -128 192 448
v 0 -64 -64
0 -64
_
v 0 192 416
256 416
_
v 0 48 272
48 288
64 288
64 304
80 304
80 320
96 320
96 336
112 336
112 352
128 352
_
v 0 -64 -96
0 -96
_
v 0 -64 416
0 416
_
v 0 192 -96
256 -96
_
v 0 -64 352
0 352
_
v 0 -64 320
0 320
_
v 0 -64 288
0 288
_
v 0 -64 256
0 256
_
v 0 -64 192
0 192
_
v 0 -64 160
0 160
_
v 0 -64 64
0 64
_
v 0 -64 0
0 0
_
v 0 192 320
256 320
_
v 0 192 288
256 288
_
v 0 192 352
256 352
_
v 0 192 160
256 160
_
v 0 192 192
256 192
_
v 0 192 96
256 96
_
v 0 192 256
256 256
_
v 0 192 64
256 64
_
v 0 192 32
256 32
_
v 0 -64 128
0 128
_
v 0 -64 32
0 32
_
v 0 -64 -32
0 -32
_
v 0 -64 224
0 224
_
[comments]
