[symbol2]
bbox 32 32 544 544
uniq 113
[tools]
[attributes]
[layers]
<symbol>
l 200 1 0 288 256 Controller
l 200 1 0 288 304 Probe
l 200 1 0 288 352 OIWFS
l 500 1 0 304 432 F2
l 100 0 0 448 48 f2OpcCfg
r 0 32 32 544 544
[comments]
