[symbol2]
bbox 32 32 864 640
uniq 27
[tools]
[attributes]
[layers]
<symbol>
l 100 0 0 376 331 flamSadMain
r 0 32 32 864 640
[comments]
RCS: $Name:  $ $Id: flamSadMain.sym,v 0.0 2005/09/01 20:21:37 drashkin Exp $
