[schematic2]
uniq 1445
[tools]
[detail]
w 1156 2267 100 0 n#1441 egenSubFLAM.egenSubFLAM#730.C 2432 1984 2112 1984 2112 2256 272 2256 ecad20.$(top)$(dev)obsControl.VALC
w 4452 1387 100 0 n#1408 hwin.hwin#1407.in 4416 1440 4448 1440 4448 1344 4544 1344 egenSub.$(top)$(dev)TCSISnodComplG.J
w 4836 1891 100 0 n#1333 egenSub.$(top)$(dev)TCSISnodComplG.OUTA 4832 1888 4912 1888 hwout.hwout#1332.outp
w 1380 955 100 0 n#1440 ecad20.$(top)$(dev)obsControl.STLK 272 944 2560 944 efanouts.efanouts#691.SLNK
w 4140 363 100 0 n#1370 ecars.$(top)$(dev)acqControlC.FLNK 4224 1056 4256 1056 4256 960 3808 960 3808 352 4544 352 egenSubD.egenSubD#1210.SLNK
w 3996 587 100 0 n#1370 ecars.$(top)$(dev)obsControlC.FLNK 4224 672 4256 672 4256 576 3808 576 junction
w 4380 995 100 0 n#1178 ecars.$(top)$(dev)obsControlC.VAL 4224 896 4288 896 4288 992 4544 992 egenSubD.egenSubD#1210.INPC
w 4396 963 100 0 n#1177 ecars.$(top)$(dev)obsControlC.OMSS 4224 832 4320 832 4320 960 4544 960 egenSubD.egenSubD#1210.INPD
w 4380 1115 100 0 n#1176 ecars.$(top)$(dev)acqControlC.OMSS 4224 1216 4384 1216 4384 1024 4544 1024 egenSubD.egenSubD#1210.INPB
w 4412 1163 100 0 n#1175 ecars.$(top)$(dev)acqControlC.VAL 4224 1280 4416 1280 4416 1056 4544 1056 egenSubD.egenSubD#1210.INPA
w 2156 1163 100 0 n#1442 efanouts.efanouts#691.LNK1 2800 1024 2880 1024 2880 1152 1504 1152 1504 2032 1600 2032 estringouts.estringouts#894.SLNK
w 2946 1211 100 0 n#837 flamLinkEnable.flamLinkEnable#664.FLINK 3472 1024 3616 1024 3616 1200 2336 1200 2336 1344 2432 1344 egenSubFLAM.egenSubFLAM#730.SLNK
w 3362 2059 100 0 n#836 elongouts.elongouts#703.FLNK 2592 2624 3104 2624 3104 2048 3680 2048 3680 1152 3104 1152 3104 1056 3152 1056 flamLinkEnable.flamLinkEnable#664.ENABLE
w 2194 1899 100 0 n#826 estringouts.estringouts#894.OUT 1856 2016 2016 2016 2016 1888 2432 1888 egenSubFLAM.egenSubFLAM#730.F
w 2434 2139 100 0 n#816 elongouts.elongouts#703.OUT 2592 2560 2720 2560 2720 2128 2208 2128 2208 2048 2432 2048 egenSubFLAM.egenSubFLAM#730.A
w 1634 2635 100 0 n#712 ecad20.$(top)$(dev)obsControl.VALA 272 2384 992 2384 992 2624 2336 2624 elongouts.elongouts#703.DOL
w 1178 2331 100 0 n#711 ecad20.$(top)$(dev)obsControl.VALB 272 2320 2144 2320 2144 2016 2432 2016 egenSubFLAM.egenSubFLAM#730.B
w 1146 2203 100 0 n#709 ecad20.$(top)$(dev)obsControl.VALD 272 2192 2080 2192 2080 1952 2432 1952 egenSubFLAM.egenSubFLAM#730.D
w 1130 2139 100 0 n#708 ecad20.$(top)$(dev)obsControl.VALE 272 2128 2048 2128 2048 1920 2432 1920 egenSubFLAM.egenSubFLAM#730.E
w 900 2075 100 0 n#1443 estringouts.estringouts#894.DOL 1600 2064 272 2064 ecad20.$(top)$(dev)obsControl.VALF
w 2946 971 100 0 n#676 efanouts.efanouts#691.LNK3 2800 960 3152 960 3152 992 flamLinkEnable.flamLinkEnable#664.SLINK
w 2098 2603 100 0 n#671 estringouts.estringouts#894.FLNK 1856 2048 1920 2048 1920 2592 2336 2592 elongouts.elongouts#703.SLNK
w 4860 835 100 0 n#1007 egenSubD.egenSubD#1210.OUTD 4832 832 4960 832 4960 704 4976 704 hwout.hwout#308.outp
w 4924 699 100 0 n#1008 egenSubD.egenSubD#1210.OUTE 4832 768 4928 768 4928 640 4976 640 hwout.hwout#309.outp
w 4948 1059 100 0 n#1006 egenSubD.egenSubD#1210.OUTB 4832 960 4928 960 4928 1056 5040 1056 ecars.$(top)$(dev)applyC.IVAL
w 4860 1027 100 0 n#1005 egenSubD.egenSubD#1210.OUTA 4832 1024 4960 1024 4960 992 5040 992 ecars.$(top)$(dev)applyC.IMSS
s 2784 1920 100 0 Obs. mode bias
s 2784 1888 100 0 Override bias
s 2784 1856 100 0 Readout mode
s -384 2320 120 0 exposure time
s 2783 1993 100 0 exposure time
s 2783 1961 100 0 number of ND readout
s 2783 2025 100 0 socket number
s 2783 2057 100 0 sim mode
s -384 2128 120 0 Override bias
s -384 2192 120 0 Obs. Mode Bias
s 5029 152 225 0 flam2DcConfig.sch 1/31/2002 12:13 PM EST
s -384 2384 120 0 command mode
s 4368 1360 100 0 input signal
s -384 2256 120 0 number of ND readout
s -384 2064 120 0 Readout mode
s 2272 2058 100 0 command mode
s 2208 1936 100 0 Override bias
s 2208 2032 100 0 exposure time
s 2208 1968 100 0 Obs. mode bias
s 2208 2000 100 0 number of ND readout
s 2208 1904 100 0 Readout mode
[cell use]
use estringouts 1600 1959 100 0 estringouts#894
xform 0 1728 2032
p 1616 1920 100 0 1 OMSL:closed_loop
p 1616 1952 100 768 -1 name:$(dc)mFltrNmW
use hwout 4976 599 100 0 hwout#309
xform 0 5072 640
p 5178 632 100 0 -1 val(outp):$(sad)dcHealth.VAL PP NMS
use hwout 4976 663 100 0 hwout#308
xform 0 5072 704
p 5178 696 100 0 -1 val(outp):$(sad)dcState.VAL PP NMS
use hwout 4912 1847 100 0 hwout#1332
xform 0 5008 1888
p 5008 1879 100 0 -1 val(outp):
use hwin 4224 1399 100 0 hwin#1407
xform 0 4320 1440
p 4227 1432 100 0 -1 val(in):
use egenSub 4544 1127 -100 0 $(top)$(dev)TCSISnodComplG
xform 0 4688 1552
p 4387 1867 100 0 0 DESC:TCS->IS Nod Complete Flag
p 4321 837 100 0 0 FTD:DOUBLE
p 4321 645 100 0 0 FTJ:STRING
p 4321 901 100 0 0 FTVA:STRING
p 4256 1534 100 0 0 INAM:ufTCSISnodComplGinit
p 4256 1502 100 0 0 SNAM:ufTCSISnodComplGproc
p 4656 1120 100 1024 -1 name:$(dc)TCSISnodComplG
p 4832 1898 75 0 -1 pproc(OUTA):PP
use egenSubD 4544 263 100 0 egenSubD#1210
xform 0 4688 688
p 4321 37 100 0 0 FTA:LONG
p 4321 37 100 0 0 FTB:STRING
p 4321 5 100 0 0 FTC:LONG
p 4321 -27 100 0 0 FTD:STRING
p 4321 -59 100 0 0 FTE:LONG
p 4321 -123 100 0 0 FTF:STRING
p 4321 -123 100 0 0 FTG:LONG
p 4321 -155 100 0 0 FTH:STRING
p 4321 37 100 0 0 FTVA:STRING
p 4321 37 100 0 0 FTVB:LONG
p 4321 5 100 0 0 FTVC:LONG
p 4321 -27 100 0 0 FTVD:STRING
p 4321 -59 100 0 0 FTVE:STRING
p 4256 670 100 0 0 INAM:ufflamNullGInit
p 4256 638 100 0 0 SNAM:ufflamCmdCombineGProcess
p 4656 256 100 1024 -1 name:$(dc)MrgCarG
p 4496 778 75 0 -1 pproc(INPJ):NPP
p 4832 970 75 0 -1 pproc(OUTB):PP
p 4832 906 75 0 -1 pproc(OUTC):NPP
p 4832 842 75 0 -1 pproc(OUTD):PP
p 4832 778 75 0 -1 pproc(OUTE):PP
use elongouts 2336 2503 100 0 elongouts#703
xform 0 2464 2592
p 2368 2464 100 0 1 OMSL:closed_loop
p 2368 2496 100 768 -1 name:$(dc)mCmodeW
use egenSubFLAM 2432 1255 100 0 egenSubFLAM#730
xform 0 2576 1680
p 2209 1029 100 0 0 FTA:LONG
p 2209 1029 100 0 0 FTB:LONG
p 2209 997 100 0 0 FTC:LONG
p 2209 965 100 0 0 FTD:LONG
p 2209 933 100 0 0 FTE:LONG
p 2209 869 100 0 0 FTF:STRING
p 2209 869 100 0 0 FTG:LONG
p 2209 837 100 0 0 FTH:LONG
p 2209 805 100 0 0 FTI:DOUBLE
p 2209 773 100 0 0 FTJ:DOUBLE
p 2209 773 100 0 0 FTK:STRING
p 2209 773 100 0 0 FTL:STRING
p 2209 773 100 0 0 FTM:STRING
p 2209 773 100 0 0 FTN:STRING
p 2209 773 100 0 0 FTO:STRING
p 2209 773 100 0 0 FTP:STRING
p 2209 773 100 0 0 FTQ:STRING
p 2209 773 100 0 0 FTR:STRING
p 2209 773 100 0 0 FTS:STRING
p 2209 773 100 0 0 FTT:STRING
p 2209 773 100 0 0 FTU:DOUBLE
p 2209 1029 100 0 0 FTVA:LONG
p 2209 1029 100 0 0 FTVB:LONG
p 2209 997 100 0 0 FTVC:STRING
p 2209 965 100 0 0 FTVD:STRING
p 2209 933 100 0 0 FTVE:STRING
p 2209 869 100 0 0 FTVF:STRING
p 2209 869 100 0 0 FTVG:STRING
p 2209 837 100 0 0 FTVH:STRING
p 2209 805 100 0 0 FTVI:STRING
p 2209 773 100 0 0 FTVJ:STRING
p 2209 773 100 0 0 FTVK:STRING
p 2209 773 100 0 0 FTVL:STRING
p 2209 773 100 0 0 FTVM:STRING
p 2209 773 100 0 0 FTVN:STRING
p 2209 773 100 0 0 FTVO:STRING
p 2209 773 100 0 0 FTVP:STRING
p 2209 773 100 0 0 FTVQ:STRING
p 2209 773 100 0 0 FTVR:STRING
p 2209 773 100 0 0 FTVS:STRING
p 2209 773 100 0 0 FTVT:STRING
p 2209 773 100 0 0 FTVU:STRING
p 2144 1662 100 0 0 INAM:ufobsControlGinit
p 2209 389 100 0 0 NOU:8
p 2209 389 100 0 0 NOVU:28
p 2144 1630 100 0 0 SNAM:ufobsControlGproc
p 2544 1248 100 1024 -1 name:$(dc)obsControlG
p 2720 1994 75 0 -1 pproc(OUTC):PP
p 2720 1962 75 0 -1 pproc(OUTD):PP
p 2720 1930 75 0 -1 pproc(OUTE):PP
p 2720 1898 75 0 -1 pproc(OUTF):PP
p 2720 1866 75 0 -1 pproc(OUTG):PP
p 2720 1834 75 0 -1 pproc(OUTH):PP
p 2720 1802 75 0 -1 pproc(OUTI):PP
p 2720 1770 75 0 -1 pproc(OUTJ):PP
p 2720 1738 75 0 -1 pproc(OUTK):PP
p 2720 1706 75 0 -1 pproc(OUTL):PP
p 2720 1674 75 0 -1 pproc(OUTM):PP
p 2720 1642 75 0 -1 pproc(OUTN):PP
p 2720 1610 75 0 -1 pproc(OUTO):PP
p 2720 1578 75 0 -1 pproc(OUTP):PP
p 2720 1546 75 0 -1 pproc(OUTQ):PP
p 2720 1514 75 0 -1 pproc(OUTR):PP
p 2720 1482 75 0 -1 pproc(OUTS):PP
p 2720 1450 75 0 -1 pproc(OUTT):PP
use efanouts 2560 807 100 0 efanouts#691
xform 0 2680 960
p 2672 800 100 1024 -1 name:$(dc)mFanout
use flamLinkEnable 3152 903 100 0 flamLinkEnable#664
xform 0 3312 1024
p 3152 896 100 0 1 setSystem:system $(dc)m
use ecars 5040 771 -120 0 $(top)$(dev)applyC
xform 0 5200 944
p 5136 992 100 0 0 DESC:Detector Controller CAR
p 5152 768 100 1024 -1 name:$(dc)applyC
use ecars 3904 615 -100 0 $(top)$(dev)obsControlC
xform 0 4064 784
p 4000 832 100 0 0 DESC:Observation Control CAR
p 4016 608 100 1024 -1 name:$(dc)obsControlC
use ecars 3904 999 -100 0 $(top)$(dev)acqControlC
xform 0 4064 1168
p 4000 1216 100 0 0 DESC:acq Control CAR
p 4016 992 100 1024 -1 name:$(dc)acqControlC
use ecad20 -48 855 -100 0 $(top)$(dev)obsControl
xform 0 112 1744
p 48 2480 100 0 0 DESC:Observation Control CAD
p 48 2320 100 0 0 FTVA:LONG
p 48 2288 100 0 0 FTVB:LONG
p 48 2256 100 0 0 FTVC:LONG
p 48 2224 100 0 0 FTVD:LONG
p 48 2192 100 0 0 FTVE:LONG
p 48 2128 100 0 0 FTVG:LONG
p 48 2096 100 0 0 FTVH:LONG
p 48 2064 100 0 0 FTVI:DOUBLE
p 48 2032 100 0 0 FTVJ:DOUBLE
p 48 1456 100 0 0 SNAM:dcObsCommand
p 64 848 100 1024 -1 name:$(dc)obsControl
p -80 1136 75 1280 -1 pproc(INPT):PP
p 272 954 75 0 -1 pproc(STLK):PP
[comments]
RCS: "$Name:  $ $Id: flamDcConfig.sch,v 0.0 2005/09/01 20:21:37 drashkin Exp $"
